,Day,Flour (kg),Water (l),Salt (kg),Yeast (kg),Kneading Time (min),Nr. unbaked Buns,Nr. baked Buns,Nr. sold Buns
0,1,100.0,70.0,1.5,1.4,35.0,3458.0,3373.0,3180.0
1,2,99.0,69.0,1.5,1.4,35.0,3418.0,3294.0,3020.0
2,3,101.0,70.0,1.5,1.4,35.0,3478.0,3390.0,3137.0
3,4,98.0,68.0,1.5,1.4,34.0,3378.0,3278.0,2970.0
4,5,100.0,70.0,1.5,1.4,35.0,3458.0,3376.0,3226.0
5,6,97.0,67.0,1.5,1.4,34.0,3338.0,3238.0,3135.0
6,7,208.0,145.0,3.1,2.9,72.0,7180.0,7077.0,6818.0
7,8,100.0,70.0,1.5,1.4,35.0,3458.0,3297.0,3053.0
8,9,101.0,70.0,1.5,1.4,35.0,3478.0,3391.0,3099.0
9,10,97.0,67.0,1.5,1.4,34.0,3338.0,3166.0,2877.0
10,11,0.0,0.0,0.0,0.0,0.0,0.0,-56.0,-304.0
11,12,102.0,71.0,1.5,1.4,36.0,3518.0,3345.0,3037.0
12,13,100.0,70.0,1.5,1.4,35.0,3458.0,3395.0,3158.0
13,14,202.0,141.0,3.0,2.8,70.0,6976.0,6859.0,6758.0
14,15,98.0,68.0,1.5,1.4,34.0,3378.0,3285.0,3119.0
15,16,99.0,69.0,1.5,1.4,35.0,3418.0,3259.0,3013.0
16,17,98.0,68.0,1.5,1.4,34.0,3378.0,3226.0,2948.0
17,18,102.0,71.0,1.5,1.4,36.0,3518.0,3461.0,3331.0
18,19,101.0,70.0,1.5,1.4,35.0,3478.0,3343.0,3145.0
19,20,98.0,68.0,1.5,1.4,34.0,3378.0,3184.0,2916.0
20,21,202.0,141.0,3.0,2.8,70.0,6976.0,6879.0,6582.0
21,22,101.0,70.0,1.5,1.4,35.0,3478.0,3385.0,3048.0
22,23,101.0,70.0,1.5,1.4,35.0,3478.0,3281.0,3046.0
23,24,0.0,0.0,0.0,0.0,0.0,0.0,-130.0,-234.0
24,25,101.0,70.0,1.5,1.4,35.0,3478.0,3413.0,3233.0
25,26,99.0,69.0,1.5,1.4,35.0,3418.0,3293.0,3095.0
26,27,100.0,70.0,1.5,1.4,35.0,3458.0,3317.0,3165.0
27,28,198.0,138.0,3.0,2.8,69.0,6836.0,6749.0,6457.0
28,29,103.0,72.0,1.5,1.4,36.0,3558.0,3393.0,3292.0
29,30,98.0,68.0,1.5,1.4,34.0,3378.0,3271.0,3120.0
30,31,99.0,69.0,1.5,1.4,35.0,3418.0,3280.0,3150.0
31,32,101.0,70.0,1.5,1.4,35.0,3478.0,3321.0,3165.0
32,33,101.0,70.0,1.5,1.4,35.0,3478.0,3365.0,3154.0
33,34,99.0,69.0,1.5,1.4,35.0,3418.0,3352.0,3107.0
34,35,196.0,137.0,2.9,2.7,68.0,6771.0,6672.0,6522.0
35,36,99.0,69.0,1.5,1.4,35.0,3418.0,3320.0,3116.0
36,37,98.0,68.0,1.5,1.4,34.0,3378.0,3280.0,3050.0
37,38,99.0,69.0,1.5,1.4,35.0,3418.0,3219.0,3079.0
38,39,101.0,70.0,1.5,1.4,35.0,3478.0,3412.0,3278.0
39,40,100.0,70.0,1.5,1.4,35.0,3458.0,3283.0,2961.0
40,41,101.0,70.0,1.5,1.4,35.0,3478.0,3394.0,3229.0
41,42,196.0,137.0,2.9,2.7,68.0,6771.0,6643.0,6435.0
42,43,101.0,70.0,1.5,1.4,35.0,3478.0,3317.0,3018.0
43,44,100.0,70.0,1.5,1.4,35.0,3458.0,3396.0,3163.0
44,45,101.0,70.0,1.5,1.4,35.0,3478.0,3367.0,3079.0
45,46,99.0,69.0,1.5,1.4,35.0,3418.0,3333.0,3084.0
46,47,100.0,70.0,1.5,1.4,35.0,3458.0,3297.0,3095.0
47,48,99.0,69.0,1.5,1.4,35.0,3418.0,3349.0,3125.0
48,49,196.0,137.0,2.9,2.7,68.0,6771.0,6587.0,6379.0
49,50,0.0,0.0,0.0,0.0,0.0,0.0,-188.0,-368.0
50,51,99.0,69.0,1.5,1.4,35.0,3418.0,3346.0,3018.0
51,52,100.0,70.0,1.5,1.4,35.0,3458.0,3316.0,2986.0
52,53,101.0,70.0,1.5,1.4,35.0,3478.0,3326.0,3173.0
53,54,103.0,72.0,1.5,1.4,36.0,3558.0,3400.0,3155.0
54,55,0.0,0.0,0.0,0.0,0.0,0.0,-63.0,-240.0
55,56,198.0,138.0,3.0,2.8,69.0,6836.0,6753.0,6429.0
56,57,100.0,70.0,1.5,1.4,35.0,3458.0,3320.0,3035.0
57,58,0.0,0.0,0.0,0.0,0.0,0.0,-103.0,-383.0
58,59,100.0,70.0,1.5,1.4,35.0,3458.0,3353.0,3200.0
59,60,100.0,70.0,1.5,1.4,35.0,3458.0,3385.0,3258.0
60,61,101.0,70.0,1.5,1.4,35.0,3478.0,3391.0,3281.0
61,62,97.0,67.0,1.5,1.4,34.0,3338.0,3246.0,3010.0
62,63,196.0,137.0,2.9,2.7,68.0,6771.0,6715.0,6439.0
63,64,98.0,68.0,1.5,1.4,34.0,3378.0,3280.0,3118.0
64,65,0.0,0.0,0.0,0.0,0.0,0.0,-102.0,-327.0
65,66,98.0,68.0,1.5,1.4,34.0,3378.0,3293.0,3036.0
66,67,0.0,0.0,0.0,0.0,0.0,0.0,-125.0,-424.0
67,68,0.0,0.0,0.0,0.0,0.0,0.0,-118.0,-425.0
68,69,100.0,70.0,1.5,1.4,35.0,3458.0,3292.0,3141.0
69,70,206.0,144.0,3.1,2.9,72.0,7120.0,6941.0,6788.0
70,71,100.0,70.0,1.5,1.4,35.0,3458.0,3403.0,3231.0
71,72,98.0,68.0,1.5,1.4,34.0,3378.0,3201.0,3094.0
72,73,100.0,70.0,1.5,1.4,35.0,3458.0,3347.0,3238.0
73,74,100.0,70.0,1.5,1.4,35.0,3458.0,3296.0,3061.0
74,75,100.0,70.0,1.5,1.4,35.0,3458.0,3358.0,3190.0
75,76,99.0,69.0,1.5,1.4,35.0,3418.0,3312.0,3083.0
76,77,198.0,138.0,3.0,2.8,69.0,6836.0,6764.0,6622.0
77,78,101.0,70.0,1.5,1.4,35.0,3478.0,3403.0,3150.0
78,79,101.0,70.0,1.5,1.4,35.0,3478.0,3386.0,3242.0
79,80,98.0,68.0,1.5,1.4,34.0,3378.0,3247.0,3064.0
80,81,101.0,70.0,1.5,1.4,35.0,3478.0,3279.0,3150.0
81,82,96.0,67.0,1.4,1.3,34.0,3314.0,3248.0,2900.0
82,83,98.0,68.0,1.5,1.4,34.0,3378.0,3321.0,3076.0
83,84,200.0,140.0,3.0,2.8,70.0,6916.0,6749.0,6622.0
84,85,101.0,70.0,1.5,1.4,35.0,3478.0,3373.0,3047.0
85,86,101.0,70.0,1.5,1.4,35.0,3478.0,3280.0,3038.0
86,87,100.0,70.0,1.5,1.4,35.0,3458.0,3374.0,3083.0
87,88,99.0,69.0,1.5,1.4,35.0,3418.0,3237.0,2992.0
88,89,99.0,69.0,1.5,1.4,35.0,3418.0,3266.0,3009.0
89,90,101.0,70.0,1.5,1.4,35.0,3478.0,3394.0,3150.0
90,91,200.0,140.0,3.0,2.8,70.0,6916.0,6816.0,6630.0
91,92,98.0,68.0,1.5,1.4,34.0,3378.0,3313.0,2964.0
92,93,0.0,0.0,0.0,0.0,0.0,0.0,-93.0,-198.0
93,94,97.0,67.0,1.5,1.4,34.0,3338.0,3254.0,3053.0
94,95,100.0,70.0,1.5,1.4,35.0,3458.0,3343.0,3190.0
95,96,98.0,68.0,1.5,1.4,34.0,3378.0,3190.0,2956.0
96,97,0.0,0.0,0.0,0.0,0.0,0.0,-52.0,-255.0
97,98,198.0,138.0,3.0,2.8,69.0,6836.0,6744.0,6437.0
98,99,98.0,68.0,1.5,1.4,34.0,3378.0,3238.0,2889.0
99,100,96.0,67.0,1.4,1.3,34.0,3314.0,3121.0,2827.0
100,101,100.0,70.0,1.5,1.4,35.0,3458.0,3343.0,3120.0
101,102,102.0,71.0,1.5,1.4,36.0,3518.0,3386.0,3264.0
102,103,99.0,69.0,1.5,1.4,35.0,3418.0,3268.0,3042.0
103,104,99.0,69.0,1.5,1.4,35.0,3418.0,3276.0,3093.0
104,105,204.0,142.0,3.1,2.9,71.0,7040.0,6974.0,6739.0
105,106,101.0,70.0,1.5,1.4,35.0,3478.0,3400.0,3230.0
106,107,97.0,67.0,1.5,1.4,34.0,3338.0,3276.0,3075.0
107,108,99.0,69.0,1.5,1.4,35.0,3418.0,3300.0,3078.0
108,109,97.0,67.0,1.5,1.4,34.0,3338.0,3159.0,3045.0
109,110,100.0,70.0,1.5,1.4,35.0,3458.0,3313.0,3067.0
110,111,0.0,0.0,0.0,0.0,0.0,0.0,-195.0,-387.0
111,112,0.0,0.0,0.0,0.0,0.0,0.0,-113.0,-336.0
112,113,101.0,70.0,1.5,1.4,35.0,3478.0,3321.0,3048.0
113,114,100.0,70.0,1.5,1.4,35.0,3458.0,3293.0,3014.0
114,115,98.0,68.0,1.5,1.4,34.0,3378.0,3208.0,3039.0
115,116,100.0,70.0,1.5,1.4,35.0,3458.0,3292.0,2997.0
116,117,101.0,70.0,1.5,1.4,35.0,3478.0,3414.0,3195.0
117,118,101.0,70.0,1.5,1.4,35.0,3478.0,3426.0,3251.0
118,119,202.0,141.0,3.0,2.8,70.0,6976.0,6806.0,6674.0
119,120,96.0,67.0,1.4,1.3,34.0,3314.0,3147.0,3043.0
120,121,99.0,69.0,1.5,1.4,35.0,3418.0,3249.0,3077.0
121,122,99.0,69.0,1.5,1.4,35.0,3418.0,3259.0,3093.0
122,123,100.0,70.0,1.5,1.4,35.0,3458.0,3304.0,3064.0
123,124,0.0,0.0,0.0,0.0,0.0,0.0,-168.0,-428.0
124,125,100.0,70.0,1.5,1.4,35.0,3458.0,3348.0,3031.0
125,126,204.0,142.0,3.1,2.9,71.0,7040.0,6938.0,6767.0
126,127,98.0,68.0,1.5,1.4,34.0,3378.0,3219.0,2876.0
127,128,98.0,68.0,1.5,1.4,34.0,3378.0,3322.0,3006.0
128,129,101.0,70.0,1.5,1.4,35.0,3478.0,3309.0,3125.0
129,130,98.0,68.0,1.5,1.4,34.0,3378.0,3298.0,2955.0
130,131,100.0,70.0,1.5,1.4,35.0,3458.0,3395.0,3165.0
131,132,99.0,69.0,1.5,1.4,35.0,3418.0,3362.0,3104.0
132,133,196.0,137.0,2.9,2.7,68.0,6771.0,6649.0,6517.0
133,134,102.0,71.0,1.5,1.4,36.0,3518.0,3414.0,3066.0
134,135,101.0,70.0,1.5,1.4,35.0,3478.0,3292.0,3047.0
135,136,97.0,67.0,1.5,1.4,34.0,3338.0,3202.0,2865.0
136,137,100.0,70.0,1.5,1.4,35.0,3458.0,3337.0,3048.0
137,138,101.0,70.0,1.5,1.4,35.0,3478.0,3303.0,3179.0
138,139,99.0,69.0,1.5,1.4,35.0,3418.0,3334.0,3001.0
139,140,196.0,137.0,2.9,2.7,68.0,6771.0,6720.0,6531.0
140,141,99.0,69.0,1.5,1.4,35.0,3418.0,3249.0,2949.0
141,142,101.0,70.0,1.5,1.4,35.0,3478.0,3318.0,3141.0
142,143,100.0,70.0,1.5,1.4,35.0,3458.0,3324.0,3207.0
143,144,103.0,72.0,1.5,1.4,36.0,3558.0,3433.0,3099.0
144,145,99.0,69.0,1.5,1.4,35.0,3418.0,3327.0,3022.0
145,146,99.0,69.0,1.5,1.4,35.0,3418.0,3332.0,3179.0
146,147,198.0,138.0,3.0,2.8,69.0,6836.0,6728.0,6430.0
147,148,101.0,70.0,1.5,1.4,35.0,3478.0,3336.0,3075.0
148,149,98.0,68.0,1.5,1.4,34.0,3378.0,3181.0,3026.0
149,150,100.0,70.0,1.5,1.4,35.0,3458.0,3400.0,3115.0
150,151,100.0,70.0,1.5,1.4,35.0,3458.0,3368.0,3067.0
151,152,101.0,70.0,1.5,1.4,35.0,3478.0,3312.0,2977.0
152,153,100.0,70.0,1.5,1.4,35.0,3458.0,3405.0,3067.0
153,154,202.0,141.0,3.0,2.8,70.0,6976.0,6910.0,6795.0
154,155,96.0,67.0,1.4,1.3,34.0,3314.0,3242.0,3102.0
155,156,97.0,67.0,1.5,1.4,34.0,3338.0,3151.0,2929.0
156,157,98.0,68.0,1.5,1.4,34.0,3378.0,3315.0,3210.0
157,158,96.0,67.0,1.4,1.3,34.0,3314.0,3138.0,2898.0
158,159,98.0,68.0,1.5,1.4,34.0,3378.0,3218.0,3090.0
159,160,99.0,69.0,1.5,1.4,35.0,3418.0,3297.0,3110.0
160,161,200.0,140.0,3.0,2.8,70.0,6916.0,6815.0,6489.0
161,162,100.0,70.0,1.5,1.4,35.0,3458.0,3378.0,3071.0
162,163,100.0,70.0,1.5,1.4,35.0,3458.0,3259.0,2988.0
163,164,98.0,68.0,1.5,1.4,34.0,3378.0,3306.0,2982.0
164,165,98.0,68.0,1.5,1.4,34.0,3378.0,3296.0,2948.0
165,166,97.0,67.0,1.5,1.4,34.0,3338.0,3231.0,2896.0
166,167,100.0,70.0,1.5,1.4,35.0,3458.0,3398.0,3068.0
167,168,196.0,137.0,2.9,2.7,68.0,6771.0,6681.0,6378.0
168,169,99.0,69.0,1.5,1.4,35.0,3418.0,3248.0,3093.0
169,170,98.0,68.0,1.5,1.4,34.0,3378.0,3311.0,3032.0
170,171,100.0,70.0,1.5,1.4,35.0,3458.0,3323.0,3179.0
171,172,0.0,0.0,0.0,0.0,0.0,0.0,-72.0,-374.0
172,173,102.0,71.0,1.5,1.4,36.0,3518.0,3467.0,3288.0
173,174,0.0,0.0,0.0,0.0,0.0,0.0,-192.0,-538.0
174,175,200.0,140.0,3.0,2.8,70.0,6916.0,6768.0,6547.0
175,176,98.0,68.0,1.5,1.4,34.0,3378.0,3202.0,3009.0
176,177,97.0,67.0,1.5,1.4,34.0,3338.0,3280.0,2954.0
177,178,97.0,67.0,1.5,1.4,34.0,3338.0,3237.0,3043.0
178,179,101.0,70.0,1.5,1.4,35.0,3478.0,3389.0,3202.0
179,180,96.0,67.0,1.4,1.3,34.0,3314.0,3189.0,3047.0
180,181,100.0,70.0,1.5,1.4,35.0,3458.0,3291.0,3096.0
181,182,198.0,138.0,3.0,2.8,69.0,6836.0,6665.0,6325.0
182,183,101.0,70.0,1.5,1.4,35.0,3478.0,3404.0,3151.0
183,184,100.0,70.0,1.5,1.4,35.0,3458.0,3360.0,3099.0
184,185,0.0,0.0,0.0,0.0,0.0,0.0,-109.0,-230.0
185,186,100.0,70.0,1.5,1.4,35.0,3458.0,3372.0,3203.0
186,187,98.0,68.0,1.5,1.4,34.0,3378.0,3238.0,2969.0
187,188,0.0,0.0,0.0,0.0,0.0,0.0,-99.0,-259.0
188,189,202.0,141.0,3.0,2.8,70.0,6976.0,6921.0,6649.0
189,190,97.0,67.0,1.5,1.4,34.0,3338.0,3288.0,2959.0
190,191,99.0,69.0,1.5,1.4,35.0,3418.0,3227.0,2983.0
191,192,100.0,70.0,1.5,1.4,35.0,3458.0,3406.0,3172.0
192,193,99.0,69.0,1.5,1.4,35.0,3418.0,3287.0,3140.0
193,194,99.0,69.0,1.5,1.4,35.0,3418.0,3292.0,2971.0
194,195,101.0,70.0,1.5,1.4,35.0,3478.0,3426.0,3281.0
195,196,196.0,137.0,2.9,2.7,68.0,6771.0,6681.0,6581.0
196,197,100.0,70.0,1.5,1.4,35.0,3458.0,3319.0,3138.0
197,198,101.0,70.0,1.5,1.4,35.0,3478.0,3345.0,3135.0
198,199,101.0,70.0,1.5,1.4,35.0,3478.0,3379.0,3226.0
199,200,100.0,70.0,1.5,1.4,35.0,3458.0,3324.0,3186.0
200,201,98.0,68.0,1.5,1.4,34.0,3378.0,3259.0,3079.0
201,202,97.0,67.0,1.5,1.4,34.0,3338.0,3221.0,2923.0
202,203,198.0,138.0,3.0,2.8,69.0,6836.0,6723.0,6615.0
203,204,99.0,69.0,1.5,1.4,35.0,3418.0,3302.0,3154.0
204,205,99.0,69.0,1.5,1.4,35.0,3418.0,3362.0,3013.0
205,206,98.0,68.0,1.5,1.4,34.0,3378.0,3258.0,3068.0
206,207,99.0,69.0,1.5,1.4,35.0,3418.0,3249.0,3143.0
207,208,0.0,0.0,0.0,0.0,0.0,0.0,-101.0,-296.0
208,209,97.0,67.0,1.5,1.4,34.0,3338.0,3182.0,2891.0
209,210,198.0,138.0,3.0,2.8,69.0,6836.0,6643.0,6313.0
210,211,100.0,70.0,1.5,1.4,35.0,3458.0,3381.0,3219.0
211,212,99.0,69.0,1.5,1.4,35.0,3418.0,3359.0,3228.0
212,213,103.0,72.0,1.5,1.4,36.0,3558.0,3399.0,3080.0
213,214,101.0,70.0,1.5,1.4,35.0,3478.0,3333.0,3111.0
214,215,97.0,67.0,1.5,1.4,34.0,3338.0,3252.0,3134.0
215,216,98.0,68.0,1.5,1.4,34.0,3378.0,3286.0,3147.0
216,217,198.0,138.0,3.0,2.8,69.0,6836.0,6727.0,6439.0
217,218,99.0,69.0,1.5,1.4,35.0,3418.0,3291.0,3065.0
218,219,101.0,70.0,1.5,1.4,35.0,3478.0,3326.0,3195.0
219,220,97.0,67.0,1.5,1.4,34.0,3338.0,3195.0,3045.0
220,221,101.0,70.0,1.5,1.4,35.0,3478.0,3422.0,3125.0
221,222,0.0,0.0,0.0,0.0,0.0,0.0,-136.0,-242.0
222,223,101.0,70.0,1.5,1.4,35.0,3478.0,3383.0,3186.0
223,224,200.0,140.0,3.0,2.8,70.0,6916.0,6862.0,6620.0
224,225,100.0,70.0,1.5,1.4,35.0,3458.0,3366.0,3089.0
225,226,99.0,69.0,1.5,1.4,35.0,3418.0,3313.0,3159.0
226,227,97.0,67.0,1.5,1.4,34.0,3338.0,3190.0,2878.0
227,228,97.0,67.0,1.5,1.4,34.0,3338.0,3181.0,3026.0
228,229,101.0,70.0,1.5,1.4,35.0,3478.0,3394.0,3104.0
229,230,100.0,70.0,1.5,1.4,35.0,3458.0,3337.0,3074.0
230,231,196.0,137.0,2.9,2.7,68.0,6771.0,6721.0,6469.0
231,232,100.0,70.0,1.5,1.4,35.0,3458.0,3268.0,3113.0
232,233,0.0,0.0,0.0,0.0,0.0,0.0,-104.0,-354.0
233,234,101.0,70.0,1.5,1.4,35.0,3478.0,3369.0,3102.0
234,235,0.0,0.0,0.0,0.0,0.0,0.0,-58.0,-339.0
235,236,0.0,0.0,0.0,0.0,0.0,0.0,-167.0,-308.0
236,237,102.0,71.0,1.5,1.4,36.0,3518.0,3464.0,3320.0
237,238,196.0,137.0,2.9,2.7,68.0,6771.0,6606.0,6424.0
238,239,98.0,68.0,1.5,1.4,34.0,3378.0,3226.0,2952.0
239,240,101.0,70.0,1.5,1.4,35.0,3478.0,3411.0,3255.0
240,241,101.0,70.0,1.5,1.4,35.0,3478.0,3324.0,3046.0
241,242,100.0,70.0,1.5,1.4,35.0,3458.0,3390.0,3177.0
242,243,101.0,70.0,1.5,1.4,35.0,3478.0,3313.0,3134.0
243,244,0.0,0.0,0.0,0.0,0.0,0.0,-194.0,-393.0
244,245,198.0,138.0,3.0,2.8,69.0,6836.0,6666.0,6351.0
245,246,100.0,70.0,1.5,1.4,35.0,3458.0,3286.0,3019.0
246,247,100.0,70.0,1.5,1.4,35.0,3458.0,3350.0,3079.0
247,248,99.0,69.0,1.5,1.4,35.0,3418.0,3334.0,3067.0
248,249,0.0,0.0,0.0,0.0,0.0,0.0,-88.0,-415.0
249,250,100.0,70.0,1.5,1.4,35.0,3458.0,3317.0,3070.0
250,251,97.0,67.0,1.5,1.4,34.0,3338.0,3265.0,3031.0
251,252,200.0,140.0,3.0,2.8,70.0,6916.0,6780.0,6662.0
252,253,97.0,67.0,1.5,1.4,34.0,3338.0,3213.0,2871.0
253,254,100.0,70.0,1.5,1.4,35.0,3458.0,3395.0,3211.0
254,255,101.0,70.0,1.5,1.4,35.0,3478.0,3312.0,3039.0
255,256,100.0,70.0,1.5,1.4,35.0,3458.0,3298.0,2964.0
256,257,99.0,69.0,1.5,1.4,35.0,3418.0,3367.0,3233.0
257,258,99.0,69.0,1.5,1.4,35.0,3418.0,3344.0,3215.0
258,259,202.0,141.0,3.0,2.8,70.0,6976.0,6897.0,6665.0
259,260,99.0,69.0,1.5,1.4,35.0,3418.0,3244.0,2957.0
260,261,0.0,0.0,0.0,0.0,0.0,0.0,-71.0,-368.0
261,262,100.0,70.0,1.5,1.4,35.0,3458.0,3386.0,3180.0
262,263,100.0,70.0,1.5,1.4,35.0,3458.0,3275.0,2963.0
263,264,99.0,69.0,1.5,1.4,35.0,3418.0,3264.0,2949.0
264,265,98.0,68.0,1.5,1.4,34.0,3378.0,3253.0,3088.0
265,266,206.0,144.0,3.1,2.9,72.0,7120.0,6992.0,6864.0
266,267,98.0,68.0,1.5,1.4,34.0,3378.0,3230.0,3067.0
267,268,101.0,70.0,1.5,1.4,35.0,3478.0,3335.0,3197.0
268,269,101.0,70.0,1.5,1.4,35.0,3478.0,3313.0,2999.0
269,270,101.0,70.0,1.5,1.4,35.0,3478.0,3426.0,3221.0
270,271,101.0,70.0,1.5,1.4,35.0,3478.0,3350.0,3021.0
271,272,98.0,68.0,1.5,1.4,34.0,3378.0,3274.0,3006.0
272,273,200.0,140.0,3.0,2.8,70.0,6916.0,6831.0,6645.0
273,274,103.0,72.0,1.5,1.4,36.0,3558.0,3475.0,3277.0
274,275,99.0,69.0,1.5,1.4,35.0,3418.0,3282.0,2988.0
275,276,99.0,69.0,1.5,1.4,35.0,3418.0,3277.0,3000.0
276,277,101.0,70.0,1.5,1.4,35.0,3478.0,3286.0,3146.0
277,278,100.0,70.0,1.5,1.4,35.0,3458.0,3290.0,3179.0
278,279,100.0,70.0,1.5,1.4,35.0,3458.0,3301.0,3035.0
279,280,200.0,140.0,3.0,2.8,70.0,6916.0,6856.0,6662.0
280,281,101.0,70.0,1.5,1.4,35.0,3478.0,3279.0,3002.0
281,282,101.0,70.0,1.5,1.4,35.0,3478.0,3416.0,3114.0
282,283,99.0,69.0,1.5,1.4,35.0,3418.0,3299.0,3022.0
283,284,99.0,69.0,1.5,1.4,35.0,3418.0,3227.0,3093.0
284,285,101.0,70.0,1.5,1.4,35.0,3478.0,3293.0,2968.0
285,286,98.0,68.0,1.5,1.4,34.0,3378.0,3215.0,3014.0
286,287,198.0,138.0,3.0,2.8,69.0,6836.0,6753.0,6576.0
287,288,101.0,70.0,1.5,1.4,35.0,3478.0,3417.0,3224.0
288,289,99.0,69.0,1.5,1.4,35.0,3418.0,3317.0,3156.0
289,290,99.0,69.0,1.5,1.4,35.0,3418.0,3331.0,3055.0
290,291,99.0,69.0,1.5,1.4,35.0,3418.0,3291.0,2968.0
291,292,101.0,70.0,1.5,1.4,35.0,3478.0,3406.0,3270.0
292,293,98.0,68.0,1.5,1.4,34.0,3378.0,3306.0,3009.0
293,294,200.0,140.0,3.0,2.8,70.0,6916.0,6840.0,6502.0
294,295,100.0,70.0,1.5,1.4,35.0,3458.0,3338.0,3074.0
295,296,101.0,70.0,1.5,1.4,35.0,3478.0,3351.0,3058.0
296,297,98.0,68.0,1.5,1.4,34.0,3378.0,3304.0,3024.0
297,298,98.0,68.0,1.5,1.4,34.0,3378.0,3275.0,2972.0
298,299,98.0,68.0,1.5,1.4,34.0,3378.0,3203.0,2942.0
299,300,101.0,70.0,1.5,1.4,35.0,3478.0,3421.0,3081.0
300,301,200.0,140.0,3.0,2.8,70.0,6916.0,6761.0,6525.0
301,302,97.0,67.0,1.5,1.4,34.0,3338.0,3257.0,2963.0
302,303,100.0,70.0,1.5,1.4,35.0,3458.0,3331.0,3131.0
303,304,101.0,70.0,1.5,1.4,35.0,3478.0,3359.0,3045.0
304,305,100.0,70.0,1.5,1.4,35.0,3458.0,3275.0,2935.0
305,306,99.0,69.0,1.5,1.4,35.0,3418.0,3277.0,3046.0
306,307,101.0,70.0,1.5,1.4,35.0,3478.0,3420.0,3305.0
307,308,196.0,137.0,2.9,2.7,68.0,6771.0,6641.0,6342.0
308,309,99.0,69.0,1.5,1.4,35.0,3418.0,3268.0,2969.0
309,310,0.0,0.0,0.0,0.0,0.0,0.0,-63.0,-216.0
310,311,0.0,0.0,0.0,0.0,0.0,0.0,-158.0,-265.0
311,312,101.0,70.0,1.5,1.4,35.0,3478.0,3330.0,3006.0
312,313,98.0,68.0,1.5,1.4,34.0,3378.0,3237.0,3047.0
313,314,97.0,67.0,1.5,1.4,34.0,3338.0,3175.0,2994.0
314,315,202.0,141.0,3.0,2.8,70.0,6976.0,6779.0,6492.0
315,316,101.0,70.0,1.5,1.4,35.0,3478.0,3354.0,3006.0
316,317,99.0,69.0,1.5,1.4,35.0,3418.0,3272.0,2924.0
317,318,101.0,70.0,1.5,1.4,35.0,3478.0,3396.0,3096.0
318,319,97.0,67.0,1.5,1.4,34.0,3338.0,3273.0,3172.0
319,320,0.0,0.0,0.0,0.0,0.0,0.0,-155.0,-418.0
320,321,100.0,70.0,1.5,1.4,35.0,3458.0,3337.0,3125.0
321,322,0.0,0.0,0.0,0.0,0.0,0.0,-95.0,-302.0
322,323,100.0,70.0,1.5,1.4,35.0,3458.0,3266.0,3126.0
323,324,0.0,0.0,0.0,0.0,0.0,0.0,-138.0,-359.0
324,325,100.0,70.0,1.5,1.4,35.0,3458.0,3283.0,3145.0
325,326,99.0,69.0,1.5,1.4,35.0,3418.0,3298.0,2954.0
326,327,101.0,70.0,1.5,1.4,35.0,3478.0,3297.0,2984.0
327,328,98.0,68.0,1.5,1.4,34.0,3378.0,3294.0,2995.0
328,329,200.0,140.0,3.0,2.8,70.0,6916.0,6766.0,6541.0
329,330,98.0,68.0,1.5,1.4,34.0,3378.0,3289.0,3056.0
330,331,98.0,68.0,1.5,1.4,34.0,3378.0,3302.0,3159.0
331,332,100.0,70.0,1.5,1.4,35.0,3458.0,3385.0,3267.0
332,333,97.0,67.0,1.5,1.4,34.0,3338.0,3244.0,2981.0
333,334,100.0,70.0,1.5,1.4,35.0,3458.0,3308.0,3066.0
334,335,0.0,0.0,0.0,0.0,0.0,0.0,-57.0,-392.0
335,336,200.0,140.0,3.0,2.8,70.0,6916.0,6822.0,6476.0
336,337,100.0,70.0,1.5,1.4,35.0,3458.0,3383.0,3141.0
337,338,0.0,0.0,0.0,0.0,0.0,0.0,-194.0,-541.0
338,339,102.0,71.0,1.5,1.4,36.0,3518.0,3349.0,3045.0
339,340,98.0,68.0,1.5,1.4,34.0,3378.0,3250.0,2981.0
340,341,99.0,69.0,1.5,1.4,35.0,3418.0,3286.0,3041.0
341,342,102.0,71.0,1.5,1.4,36.0,3518.0,3422.0,3221.0
342,343,200.0,140.0,3.0,2.8,70.0,6916.0,6812.0,6501.0
343,344,100.0,70.0,1.5,1.4,35.0,3458.0,3264.0,3034.0
344,345,100.0,70.0,1.5,1.4,35.0,3458.0,3404.0,3263.0
345,346,0.0,0.0,0.0,0.0,0.0,0.0,-61.0,-186.0
346,347,103.0,72.0,1.5,1.4,36.0,3558.0,3394.0,3190.0
347,348,98.0,68.0,1.5,1.4,34.0,3378.0,3303.0,3014.0
348,349,0.0,0.0,0.0,0.0,0.0,0.0,-151.0,-480.0
349,350,0.0,0.0,0.0,0.0,0.0,0.0,-119.0,-315.0
350,351,97.0,67.0,1.5,1.4,34.0,3338.0,3218.0,3060.0
351,352,100.0,70.0,1.5,1.4,35.0,3458.0,3322.0,3074.0
352,353,97.0,67.0,1.5,1.4,34.0,3338.0,3283.0,3037.0
353,354,101.0,70.0,1.5,1.4,35.0,3478.0,3383.0,3131.0
354,355,99.0,69.0,1.5,1.4,35.0,3418.0,3245.0,3041.0
355,356,101.0,70.0,1.5,1.4,35.0,3478.0,3328.0,3015.0
356,357,202.0,141.0,3.0,2.8,70.0,6976.0,6853.0,6618.0
357,358,103.0,72.0,1.5,1.4,36.0,3558.0,3416.0,3140.0
358,359,99.0,69.0,1.5,1.4,35.0,3418.0,3270.0,3124.0
359,360,102.0,71.0,1.5,1.4,36.0,3518.0,3462.0,3113.0
360,361,0.0,0.0,0.0,0.0,0.0,0.0,-127.0,-410.0
361,362,98.0,68.0,1.5,1.4,34.0,3378.0,3229.0,3044.0
362,363,102.0,71.0,1.5,1.4,36.0,3518.0,3344.0,3179.0
363,364,198.0,138.0,3.0,2.8,69.0,6836.0,6740.0,6413.0
364,365,98.0,68.0,1.5,1.4,34.0,3378.0,3325.0,3118.0
365,366,99.0,69.0,1.5,1.4,35.0,3418.0,3225.0,3008.0
366,367,100.0,70.0,1.5,1.4,35.0,3458.0,3374.0,3204.0
367,368,100.0,70.0,1.5,1.4,35.0,3458.0,3325.0,3051.0
368,369,100.0,70.0,1.5,1.4,35.0,3458.0,3403.0,3258.0
369,370,101.0,70.0,1.5,1.4,35.0,3478.0,3393.0,3044.0
370,371,196.0,137.0,2.9,2.7,68.0,6771.0,6672.0,6481.0
371,372,104.0,72.0,1.6,1.5,36.0,3581.0,3416.0,3115.0
372,373,97.0,67.0,1.5,1.4,34.0,3338.0,3264.0,3054.0
373,374,99.0,69.0,1.5,1.4,35.0,3418.0,3274.0,3096.0
374,375,102.0,71.0,1.5,1.4,36.0,3518.0,3385.0,3285.0
375,376,98.0,68.0,1.5,1.4,34.0,3378.0,3316.0,3046.0
376,377,97.0,67.0,1.5,1.4,34.0,3338.0,3195.0,2896.0
377,378,204.0,142.0,3.1,2.9,71.0,7040.0,6987.0,6724.0
378,379,103.0,72.0,1.5,1.4,36.0,3558.0,3411.0,3067.0
379,380,101.0,70.0,1.5,1.4,35.0,3478.0,3356.0,3085.0
380,381,98.0,68.0,1.5,1.4,34.0,3378.0,3208.0,3100.0
381,382,101.0,70.0,1.5,1.4,35.0,3478.0,3406.0,3063.0
382,383,99.0,69.0,1.5,1.4,35.0,3418.0,3297.0,3027.0
383,384,103.0,72.0,1.5,1.4,36.0,3558.0,3378.0,3082.0
384,385,198.0,138.0,3.0,2.8,69.0,6836.0,6714.0,6591.0
385,386,97.0,67.0,1.5,1.4,34.0,3338.0,3185.0,3003.0
386,387,101.0,70.0,1.5,1.4,35.0,3478.0,3351.0,3101.0
387,388,99.0,69.0,1.5,1.4,35.0,3418.0,3319.0,3032.0
388,389,101.0,70.0,1.5,1.4,35.0,3478.0,3353.0,3034.0
389,390,99.0,69.0,1.5,1.4,35.0,3418.0,3257.0,3032.0
390,391,97.0,67.0,1.5,1.4,34.0,3338.0,3236.0,2948.0
391,392,0.0,0.0,0.0,0.0,0.0,0.0,-176.0,-321.0
392,393,100.0,70.0,1.5,1.4,35.0,3458.0,3314.0,3210.0
393,394,99.0,69.0,1.5,1.4,35.0,3418.0,3307.0,3070.0
394,395,99.0,69.0,1.5,1.4,35.0,3418.0,3300.0,3097.0
395,396,100.0,70.0,1.5,1.4,35.0,3458.0,3362.0,3062.0
396,397,99.0,69.0,1.5,1.4,35.0,3418.0,3276.0,3077.0
397,398,101.0,70.0,1.5,1.4,35.0,3478.0,3330.0,3044.0
398,399,202.0,141.0,3.0,2.8,70.0,6976.0,6886.0,6618.0
399,400,99.0,69.0,1.5,1.4,35.0,3418.0,3227.0,3083.0
400,401,98.0,68.0,1.5,1.4,34.0,3378.0,3255.0,2924.0
401,402,100.0,70.0,1.5,1.4,35.0,3458.0,3309.0,3143.0
402,403,100.0,70.0,1.5,1.4,35.0,3458.0,3408.0,3200.0
403,404,100.0,70.0,1.5,1.4,35.0,3458.0,3312.0,2964.0
404,405,96.0,67.0,1.4,1.3,34.0,3314.0,3228.0,3044.0
405,406,198.0,138.0,3.0,2.8,69.0,6836.0,6735.0,6519.0
406,407,99.0,69.0,1.5,1.4,35.0,3418.0,3363.0,3091.0
407,408,99.0,69.0,1.5,1.4,35.0,3418.0,3293.0,2989.0
408,409,100.0,70.0,1.5,1.4,35.0,3458.0,3407.0,3257.0
409,410,101.0,70.0,1.5,1.4,35.0,3478.0,3419.0,3254.0
410,411,101.0,70.0,1.5,1.4,35.0,3478.0,3329.0,3189.0
411,412,97.0,67.0,1.5,1.4,34.0,3338.0,3271.0,2977.0
412,413,198.0,138.0,3.0,2.8,69.0,6836.0,6649.0,6339.0
413,414,0.0,0.0,0.0,0.0,0.0,0.0,-118.0,-342.0
414,415,99.0,69.0,1.5,1.4,35.0,3418.0,3366.0,3077.0
415,416,100.0,70.0,1.5,1.4,35.0,3458.0,3269.0,3049.0
416,417,100.0,70.0,1.5,1.4,35.0,3458.0,3334.0,3143.0
417,418,100.0,70.0,1.5,1.4,35.0,3458.0,3320.0,3204.0
418,419,98.0,68.0,1.5,1.4,34.0,3378.0,3179.0,2935.0
419,420,198.0,138.0,3.0,2.8,69.0,6836.0,6683.0,6392.0
420,421,100.0,70.0,1.5,1.4,35.0,3458.0,3298.0,3039.0
421,422,101.0,70.0,1.5,1.4,35.0,3478.0,3420.0,3124.0
422,423,96.0,67.0,1.4,1.3,34.0,3314.0,3158.0,2933.0
423,424,0.0,0.0,0.0,0.0,0.0,0.0,-163.0,-350.0
424,425,96.0,67.0,1.4,1.3,34.0,3314.0,3225.0,3087.0
425,426,98.0,68.0,1.5,1.4,34.0,3378.0,3197.0,2923.0
426,427,200.0,140.0,3.0,2.8,70.0,6916.0,6813.0,6639.0
427,428,98.0,68.0,1.5,1.4,34.0,3378.0,3299.0,2952.0
428,429,99.0,69.0,1.5,1.4,35.0,3418.0,3355.0,3146.0
429,430,102.0,71.0,1.5,1.4,36.0,3518.0,3403.0,3233.0
430,431,97.0,67.0,1.5,1.4,34.0,3338.0,3180.0,3063.0
431,432,0.0,0.0,0.0,0.0,0.0,0.0,-79.0,-185.0
432,433,100.0,70.0,1.5,1.4,35.0,3458.0,3342.0,3004.0
433,434,200.0,140.0,3.0,2.8,70.0,6916.0,6766.0,6482.0
434,435,102.0,71.0,1.5,1.4,36.0,3518.0,3431.0,3295.0
435,436,101.0,70.0,1.5,1.4,35.0,3478.0,3342.0,3199.0
436,437,98.0,68.0,1.5,1.4,34.0,3378.0,3247.0,3121.0
437,438,101.0,70.0,1.5,1.4,35.0,3478.0,3412.0,3312.0
438,439,100.0,70.0,1.5,1.4,35.0,3458.0,3282.0,3033.0
439,440,99.0,69.0,1.5,1.4,35.0,3418.0,3281.0,3162.0
440,441,198.0,138.0,3.0,2.8,69.0,6836.0,6704.0,6552.0
441,442,101.0,70.0,1.5,1.4,35.0,3478.0,3283.0,2934.0
442,443,100.0,70.0,1.5,1.4,35.0,3458.0,3317.0,3076.0
443,444,100.0,70.0,1.5,1.4,35.0,3458.0,3287.0,2995.0
444,445,0.0,0.0,0.0,0.0,0.0,0.0,-57.0,-266.0
445,446,99.0,69.0,1.5,1.4,35.0,3418.0,3320.0,3009.0
446,447,100.0,70.0,1.5,1.4,35.0,3458.0,3403.0,3101.0
447,448,194.0,135.0,2.9,2.7,67.0,6691.0,6633.0,6469.0
448,449,100.0,70.0,1.5,1.4,35.0,3458.0,3320.0,2996.0
449,450,99.0,69.0,1.5,1.4,35.0,3418.0,3238.0,3133.0
450,451,0.0,0.0,0.0,0.0,0.0,0.0,-85.0,-404.0
451,452,100.0,70.0,1.5,1.4,35.0,3458.0,3282.0,3076.0
452,453,101.0,70.0,1.5,1.4,35.0,3478.0,3304.0,3198.0
453,454,98.0,68.0,1.5,1.4,34.0,3378.0,3253.0,3093.0
454,455,202.0,141.0,3.0,2.8,70.0,6976.0,6791.0,6588.0
455,456,101.0,70.0,1.5,1.4,35.0,3478.0,3291.0,3034.0
456,457,99.0,69.0,1.5,1.4,35.0,3418.0,3358.0,3035.0
457,458,100.0,70.0,1.5,1.4,35.0,3458.0,3269.0,3162.0
458,459,100.0,70.0,1.5,1.4,35.0,3458.0,3279.0,3087.0
459,460,97.0,67.0,1.5,1.4,34.0,3338.0,3256.0,3002.0
460,461,99.0,69.0,1.5,1.4,35.0,3418.0,3253.0,2962.0
461,462,0.0,0.0,0.0,0.0,0.0,0.0,-129.0,-429.0
462,463,99.0,69.0,1.5,1.4,35.0,3418.0,3354.0,3134.0
463,464,96.0,67.0,1.4,1.3,34.0,3314.0,3178.0,2877.0
464,465,97.0,67.0,1.5,1.4,34.0,3338.0,3181.0,2990.0
465,466,101.0,70.0,1.5,1.4,35.0,3478.0,3390.0,3187.0
466,467,101.0,70.0,1.5,1.4,35.0,3478.0,3330.0,3058.0
467,468,98.0,68.0,1.5,1.4,34.0,3378.0,3311.0,3205.0
468,469,198.0,138.0,3.0,2.8,69.0,6836.0,6652.0,6303.0
469,470,99.0,69.0,1.5,1.4,35.0,3418.0,3314.0,3003.0
470,471,102.0,71.0,1.5,1.4,36.0,3518.0,3400.0,3128.0
471,472,98.0,68.0,1.5,1.4,34.0,3378.0,3306.0,2967.0
472,473,99.0,69.0,1.5,1.4,35.0,3418.0,3364.0,3262.0
473,474,99.0,69.0,1.5,1.4,35.0,3418.0,3348.0,3056.0
474,475,101.0,70.0,1.5,1.4,35.0,3478.0,3319.0,3025.0
475,476,200.0,140.0,3.0,2.8,70.0,6916.0,6826.0,6488.0
476,477,100.0,70.0,1.5,1.4,35.0,3458.0,3284.0,3062.0
477,478,99.0,69.0,1.5,1.4,35.0,3418.0,3359.0,3103.0
478,479,101.0,70.0,1.5,1.4,35.0,3478.0,3326.0,3119.0
479,480,97.0,67.0,1.5,1.4,34.0,3338.0,3224.0,2981.0
480,481,100.0,70.0,1.5,1.4,35.0,3458.0,3341.0,3189.0
481,482,101.0,70.0,1.5,1.4,35.0,3478.0,3290.0,2985.0
482,483,0.0,0.0,0.0,0.0,0.0,0.0,-181.0,-472.0
483,484,98.0,68.0,1.5,1.4,34.0,3378.0,3287.0,2991.0
484,485,98.0,68.0,1.5,1.4,34.0,3378.0,3268.0,3036.0
485,486,101.0,70.0,1.5,1.4,35.0,3478.0,3358.0,3180.0
486,487,0.0,0.0,0.0,0.0,0.0,0.0,-74.0,-389.0
487,488,101.0,70.0,1.5,1.4,35.0,3478.0,3357.0,3141.0
488,489,98.0,68.0,1.5,1.4,34.0,3378.0,3278.0,3171.0
489,490,198.0,138.0,3.0,2.8,69.0,6836.0,6759.0,6568.0
490,491,98.0,68.0,1.5,1.4,34.0,3378.0,3180.0,2962.0
491,492,99.0,69.0,1.5,1.4,35.0,3418.0,3341.0,3187.0
492,493,101.0,70.0,1.5,1.4,35.0,3478.0,3309.0,3066.0
493,494,0.0,0.0,0.0,0.0,0.0,0.0,-193.0,-294.0
494,495,100.0,70.0,1.5,1.4,35.0,3458.0,3395.0,3058.0
495,496,105.0,73.0,1.6,1.5,37.0,3621.0,3484.0,3136.0
496,497,202.0,141.0,3.0,2.8,70.0,6976.0,6890.0,6688.0
497,498,101.0,70.0,1.5,1.4,35.0,3478.0,3311.0,3141.0
498,499,0.0,0.0,0.0,0.0,0.0,0.0,-94.0,-274.0
499,500,98.0,68.0,1.5,1.4,34.0,3378.0,3294.0,3026.0
500,501,101.0,70.0,1.5,1.4,35.0,3478.0,3394.0,3212.0
501,502,101.0,70.0,1.5,1.4,35.0,3478.0,3401.0,3084.0
502,503,97.0,67.0,1.5,1.4,34.0,3338.0,3185.0,2992.0
503,504,202.0,141.0,3.0,2.8,70.0,6976.0,6875.0,6595.0
504,505,98.0,68.0,1.5,1.4,34.0,3378.0,3289.0,3102.0
505,506,98.0,68.0,1.5,1.4,34.0,3378.0,3234.0,3093.0
506,507,99.0,69.0,1.5,1.4,35.0,3418.0,3243.0,3131.0
507,508,101.0,70.0,1.5,1.4,35.0,3478.0,3297.0,2973.0
508,509,102.0,71.0,1.5,1.4,36.0,3518.0,3436.0,3115.0
509,510,99.0,69.0,1.5,1.4,35.0,3418.0,3367.0,3180.0
510,511,198.0,138.0,3.0,2.8,69.0,6836.0,6686.0,6574.0
511,512,100.0,70.0,1.5,1.4,35.0,3458.0,3284.0,2987.0
512,513,99.0,69.0,1.5,1.4,35.0,3418.0,3336.0,3167.0
513,514,100.0,70.0,1.5,1.4,35.0,3458.0,3295.0,2999.0
514,515,99.0,69.0,1.5,1.4,35.0,3418.0,3365.0,3069.0
515,516,98.0,68.0,1.5,1.4,34.0,3378.0,3182.0,2867.0
516,517,99.0,69.0,1.5,1.4,35.0,3418.0,3249.0,3054.0
517,518,200.0,140.0,3.0,2.8,70.0,6916.0,6841.0,6528.0
518,519,102.0,71.0,1.5,1.4,36.0,3518.0,3371.0,3187.0
519,520,100.0,70.0,1.5,1.4,35.0,3458.0,3345.0,3056.0
520,521,0.0,0.0,0.0,0.0,0.0,0.0,-172.0,-311.0
521,522,98.0,68.0,1.5,1.4,34.0,3378.0,3210.0,3047.0
522,523,99.0,69.0,1.5,1.4,35.0,3418.0,3269.0,3145.0
523,524,98.0,68.0,1.5,1.4,34.0,3378.0,3263.0,3011.0
524,525,200.0,140.0,3.0,2.8,70.0,6916.0,6800.0,6544.0
525,526,99.0,69.0,1.5,1.4,35.0,3418.0,3288.0,2982.0
526,527,99.0,69.0,1.5,1.4,35.0,3418.0,3306.0,3080.0
527,528,101.0,70.0,1.5,1.4,35.0,3478.0,3352.0,3016.0
528,529,98.0,68.0,1.5,1.4,34.0,3378.0,3199.0,2958.0
529,530,100.0,70.0,1.5,1.4,35.0,3458.0,3353.0,3048.0
530,531,100.0,70.0,1.5,1.4,35.0,3458.0,3403.0,3227.0
531,532,198.0,138.0,3.0,2.8,69.0,6836.0,6773.0,6524.0
532,533,0.0,0.0,0.0,0.0,0.0,0.0,-173.0,-359.0
533,534,100.0,70.0,1.5,1.4,35.0,3458.0,3290.0,3061.0
534,535,98.0,68.0,1.5,1.4,34.0,3378.0,3277.0,3111.0
535,536,0.0,0.0,0.0,0.0,0.0,0.0,-174.0,-338.0
536,537,100.0,70.0,1.5,1.4,35.0,3458.0,3286.0,3001.0
537,538,99.0,69.0,1.5,1.4,35.0,3418.0,3251.0,3027.0
538,539,200.0,140.0,3.0,2.8,70.0,6916.0,6845.0,6688.0
539,540,100.0,70.0,1.5,1.4,35.0,3458.0,3262.0,2999.0
540,541,99.0,69.0,1.5,1.4,35.0,3418.0,3316.0,3043.0
541,542,101.0,70.0,1.5,1.4,35.0,3478.0,3401.0,3098.0
542,543,100.0,70.0,1.5,1.4,35.0,3458.0,3354.0,3170.0
543,544,0.0,0.0,0.0,0.0,0.0,0.0,-95.0,-219.0
544,545,101.0,70.0,1.5,1.4,35.0,3478.0,3318.0,3067.0
545,546,198.0,138.0,3.0,2.8,69.0,6836.0,6781.0,6541.0
546,547,99.0,69.0,1.5,1.4,35.0,3418.0,3348.0,3041.0
547,548,98.0,68.0,1.5,1.4,34.0,3378.0,3276.0,3039.0
548,549,102.0,71.0,1.5,1.4,36.0,3518.0,3429.0,3166.0
549,550,0.0,0.0,0.0,0.0,0.0,0.0,-177.0,-385.0
550,551,98.0,68.0,1.5,1.4,34.0,3378.0,3233.0,2953.0
551,552,99.0,69.0,1.5,1.4,35.0,3418.0,3339.0,3198.0
552,553,196.0,137.0,2.9,2.7,68.0,6771.0,6672.0,6426.0
553,554,99.0,69.0,1.5,1.4,35.0,3418.0,3279.0,3027.0
554,555,100.0,70.0,1.5,1.4,35.0,3458.0,3339.0,3236.0
555,556,100.0,70.0,1.5,1.4,35.0,3458.0,3338.0,3103.0
556,557,98.0,68.0,1.5,1.4,34.0,3378.0,3272.0,2967.0
557,558,101.0,70.0,1.5,1.4,35.0,3478.0,3285.0,3047.0
558,559,0.0,0.0,0.0,0.0,0.0,0.0,-185.0,-443.0
559,560,200.0,140.0,3.0,2.8,70.0,6916.0,6770.0,6637.0
560,561,99.0,69.0,1.5,1.4,35.0,3418.0,3322.0,2986.0
561,562,102.0,71.0,1.5,1.4,36.0,3518.0,3343.0,3025.0
562,563,0.0,0.0,0.0,0.0,0.0,0.0,-191.0,-316.0
563,564,95.0,66.0,1.4,1.3,33.0,3274.0,3154.0,2827.0
564,565,101.0,70.0,1.5,1.4,35.0,3478.0,3340.0,3040.0
565,566,99.0,69.0,1.5,1.4,35.0,3418.0,3245.0,2899.0
566,567,196.0,137.0,2.9,2.7,68.0,6771.0,6687.0,6362.0
567,568,99.0,69.0,1.5,1.4,35.0,3418.0,3237.0,3112.0
568,569,101.0,70.0,1.5,1.4,35.0,3478.0,3419.0,3120.0
569,570,102.0,71.0,1.5,1.4,36.0,3518.0,3438.0,3279.0
570,571,102.0,71.0,1.5,1.4,36.0,3518.0,3427.0,3175.0
571,572,101.0,70.0,1.5,1.4,35.0,3478.0,3305.0,3024.0
572,573,97.0,67.0,1.5,1.4,34.0,3338.0,3165.0,3040.0
573,574,202.0,141.0,3.0,2.8,70.0,6976.0,6864.0,6613.0
574,575,103.0,72.0,1.5,1.4,36.0,3558.0,3500.0,3337.0
575,576,97.0,67.0,1.5,1.4,34.0,3338.0,3200.0,3004.0
576,577,100.0,70.0,1.5,1.4,35.0,3458.0,3372.0,3060.0
577,578,98.0,68.0,1.5,1.4,34.0,3378.0,3279.0,3139.0
578,579,98.0,68.0,1.5,1.4,34.0,3378.0,3321.0,3145.0
579,580,0.0,0.0,0.0,0.0,0.0,0.0,-144.0,-341.0
580,581,198.0,138.0,3.0,2.8,69.0,6836.0,6752.0,6429.0
581,582,0.0,0.0,0.0,0.0,0.0,0.0,-144.0,-320.0
582,583,100.0,70.0,1.5,1.4,35.0,3458.0,3328.0,3113.0
583,584,0.0,0.0,0.0,0.0,0.0,0.0,-91.0,-324.0
584,585,98.0,68.0,1.5,1.4,34.0,3378.0,3242.0,2956.0
585,586,97.0,67.0,1.5,1.4,34.0,3338.0,3269.0,3002.0
586,587,96.0,67.0,1.4,1.3,34.0,3314.0,3233.0,2896.0
587,588,198.0,138.0,3.0,2.8,69.0,6836.0,6760.0,6568.0
588,589,99.0,69.0,1.5,1.4,35.0,3418.0,3287.0,3096.0
589,590,100.0,70.0,1.5,1.4,35.0,3458.0,3290.0,2986.0
590,591,100.0,70.0,1.5,1.4,35.0,3458.0,3307.0,3129.0
591,592,98.0,68.0,1.5,1.4,34.0,3378.0,3245.0,2998.0
592,593,102.0,71.0,1.5,1.4,36.0,3518.0,3453.0,3298.0
593,594,101.0,70.0,1.5,1.4,35.0,3478.0,3299.0,3115.0
594,595,200.0,140.0,3.0,2.8,70.0,6916.0,6791.0,6619.0
595,596,0.0,0.0,0.0,0.0,0.0,0.0,-140.0,-434.0
596,597,100.0,70.0,1.5,1.4,35.0,3458.0,3399.0,3133.0
597,598,100.0,70.0,1.5,1.4,35.0,3458.0,3268.0,3073.0
598,599,98.0,68.0,1.5,1.4,34.0,3378.0,3188.0,3019.0
599,600,98.0,68.0,1.5,1.4,34.0,3378.0,3222.0,2971.0
600,601,100.0,70.0,1.5,1.4,35.0,3458.0,3304.0,2967.0
601,602,198.0,138.0,3.0,2.8,69.0,6836.0,6732.0,6538.0
602,603,99.0,69.0,1.5,1.4,35.0,3418.0,3360.0,3195.0
603,604,98.0,68.0,1.5,1.4,34.0,3378.0,3277.0,2933.0
604,605,97.0,67.0,1.5,1.4,34.0,3338.0,3246.0,3007.0
605,606,99.0,69.0,1.5,1.4,35.0,3418.0,3318.0,3051.0
606,607,99.0,69.0,1.5,1.4,35.0,3418.0,3325.0,3154.0
607,608,100.0,70.0,1.5,1.4,35.0,3458.0,3366.0,3171.0
608,609,198.0,138.0,3.0,2.8,69.0,6836.0,6701.0,6534.0
609,610,99.0,69.0,1.5,1.4,35.0,3418.0,3304.0,3071.0
610,611,99.0,69.0,1.5,1.4,35.0,3418.0,3321.0,3172.0
611,612,98.0,68.0,1.5,1.4,34.0,3378.0,3187.0,2838.0
612,613,99.0,69.0,1.5,1.4,35.0,3418.0,3322.0,3042.0
613,614,99.0,69.0,1.5,1.4,35.0,3418.0,3268.0,3141.0
614,615,99.0,69.0,1.5,1.4,35.0,3418.0,3230.0,2946.0
615,616,198.0,138.0,3.0,2.8,69.0,6836.0,6661.0,6377.0
616,617,98.0,68.0,1.5,1.4,34.0,3378.0,3287.0,3157.0
617,618,98.0,68.0,1.5,1.4,34.0,3378.0,3182.0,2914.0
618,619,101.0,70.0,1.5,1.4,35.0,3478.0,3404.0,3260.0
619,620,97.0,67.0,1.5,1.4,34.0,3338.0,3144.0,3033.0
620,621,100.0,70.0,1.5,1.4,35.0,3458.0,3338.0,3069.0
621,622,100.0,70.0,1.5,1.4,35.0,3458.0,3404.0,3135.0
622,623,190.0,133.0,2.8,2.7,66.0,6570.0,6463.0,6280.0
623,624,98.0,68.0,1.5,1.4,34.0,3378.0,3300.0,3171.0
624,625,100.0,70.0,1.5,1.4,35.0,3458.0,3337.0,3002.0
625,626,98.0,68.0,1.5,1.4,34.0,3378.0,3246.0,3003.0
626,627,98.0,68.0,1.5,1.4,34.0,3378.0,3320.0,2980.0
627,628,101.0,70.0,1.5,1.4,35.0,3478.0,3361.0,3012.0
628,629,99.0,69.0,1.5,1.4,35.0,3418.0,3327.0,3101.0
629,630,196.0,137.0,2.9,2.7,68.0,6771.0,6616.0,6499.0
630,631,101.0,70.0,1.5,1.4,35.0,3478.0,3375.0,3059.0
631,632,0.0,0.0,0.0,0.0,0.0,0.0,-112.0,-390.0
632,633,96.0,67.0,1.4,1.3,34.0,3314.0,3218.0,3032.0
633,634,100.0,70.0,1.5,1.4,35.0,3458.0,3287.0,3013.0
634,635,98.0,68.0,1.5,1.4,34.0,3378.0,3195.0,3048.0
635,636,100.0,70.0,1.5,1.4,35.0,3458.0,3374.0,3259.0
636,637,196.0,137.0,2.9,2.7,68.0,6771.0,6593.0,6490.0
637,638,99.0,69.0,1.5,1.4,35.0,3418.0,3222.0,3077.0
638,639,101.0,70.0,1.5,1.4,35.0,3478.0,3396.0,3158.0
639,640,99.0,69.0,1.5,1.4,35.0,3418.0,3306.0,3163.0
640,641,98.0,68.0,1.5,1.4,34.0,3378.0,3200.0,2990.0
641,642,97.0,67.0,1.5,1.4,34.0,3338.0,3196.0,2883.0
642,643,99.0,69.0,1.5,1.4,35.0,3418.0,3303.0,3070.0
643,644,198.0,138.0,3.0,2.8,69.0,6836.0,6646.0,6525.0
644,645,100.0,70.0,1.5,1.4,35.0,3458.0,3391.0,3167.0
645,646,100.0,70.0,1.5,1.4,35.0,3458.0,3292.0,2959.0
646,647,99.0,69.0,1.5,1.4,35.0,3418.0,3350.0,3173.0
647,648,99.0,69.0,1.5,1.4,35.0,3418.0,3314.0,3135.0
648,649,100.0,70.0,1.5,1.4,35.0,3458.0,3327.0,2993.0
649,650,98.0,68.0,1.5,1.4,34.0,3378.0,3299.0,2981.0
650,651,206.0,144.0,3.1,2.9,72.0,7120.0,6930.0,6646.0
651,652,100.0,70.0,1.5,1.4,35.0,3458.0,3360.0,3218.0
652,653,100.0,70.0,1.5,1.4,35.0,3458.0,3397.0,3258.0
653,654,100.0,70.0,1.5,1.4,35.0,3458.0,3291.0,2998.0
654,655,98.0,68.0,1.5,1.4,34.0,3378.0,3239.0,2977.0
655,656,0.0,0.0,0.0,0.0,0.0,0.0,-162.0,-411.0
656,657,99.0,69.0,1.5,1.4,35.0,3418.0,3290.0,2963.0
657,658,200.0,140.0,3.0,2.8,70.0,6916.0,6752.0,6555.0
658,659,100.0,70.0,1.5,1.4,35.0,3458.0,3397.0,3200.0
659,660,100.0,70.0,1.5,1.4,35.0,3458.0,3388.0,3040.0
660,661,100.0,70.0,1.5,1.4,35.0,3458.0,3306.0,3141.0
661,662,98.0,68.0,1.5,1.4,34.0,3378.0,3283.0,3037.0
662,663,100.0,70.0,1.5,1.4,35.0,3458.0,3322.0,3169.0
663,664,100.0,70.0,1.5,1.4,35.0,3458.0,3266.0,3137.0
664,665,198.0,138.0,3.0,2.8,69.0,6836.0,6662.0,6352.0
665,666,98.0,68.0,1.5,1.4,34.0,3378.0,3259.0,3011.0
666,667,101.0,70.0,1.5,1.4,35.0,3478.0,3295.0,3160.0
667,668,0.0,0.0,0.0,0.0,0.0,0.0,-106.0,-242.0
668,669,100.0,70.0,1.5,1.4,35.0,3458.0,3332.0,3225.0
669,670,100.0,70.0,1.5,1.4,35.0,3458.0,3291.0,3018.0
670,671,0.0,0.0,0.0,0.0,0.0,0.0,-137.0,-262.0
671,672,198.0,138.0,3.0,2.8,69.0,6836.0,6756.0,6470.0
672,673,97.0,67.0,1.5,1.4,34.0,3338.0,3267.0,3126.0
673,674,100.0,70.0,1.5,1.4,35.0,3458.0,3277.0,2964.0
674,675,99.0,69.0,1.5,1.4,35.0,3418.0,3312.0,3083.0
675,676,101.0,70.0,1.5,1.4,35.0,3478.0,3305.0,3120.0
676,677,101.0,70.0,1.5,1.4,35.0,3478.0,3290.0,3149.0
677,678,99.0,69.0,1.5,1.4,35.0,3418.0,3359.0,3187.0
678,679,200.0,140.0,3.0,2.8,70.0,6916.0,6815.0,6508.0
679,680,99.0,69.0,1.5,1.4,35.0,3418.0,3238.0,3032.0
680,681,99.0,69.0,1.5,1.4,35.0,3418.0,3298.0,3110.0
681,682,99.0,69.0,1.5,1.4,35.0,3418.0,3354.0,3239.0
682,683,99.0,69.0,1.5,1.4,35.0,3418.0,3290.0,3136.0
683,684,97.0,67.0,1.5,1.4,34.0,3338.0,3232.0,3102.0
684,685,100.0,70.0,1.5,1.4,35.0,3458.0,3367.0,3138.0
685,686,0.0,0.0,0.0,0.0,0.0,0.0,-53.0,-177.0
686,687,101.0,70.0,1.5,1.4,35.0,3478.0,3326.0,3159.0
687,688,99.0,69.0,1.5,1.4,35.0,3418.0,3352.0,3043.0
688,689,97.0,67.0,1.5,1.4,34.0,3338.0,3234.0,2967.0
689,690,96.0,67.0,1.4,1.3,34.0,3314.0,3250.0,2938.0
690,691,100.0,70.0,1.5,1.4,35.0,3458.0,3295.0,3136.0
691,692,102.0,71.0,1.5,1.4,36.0,3518.0,3432.0,3288.0
692,693,206.0,144.0,3.1,2.9,72.0,7120.0,7069.0,6856.0
693,694,98.0,68.0,1.5,1.4,34.0,3378.0,3249.0,3010.0
694,695,99.0,69.0,1.5,1.4,35.0,3418.0,3312.0,3075.0
695,696,98.0,68.0,1.5,1.4,34.0,3378.0,3186.0,2846.0
696,697,102.0,71.0,1.5,1.4,36.0,3518.0,3399.0,3184.0
697,698,105.0,73.0,1.6,1.5,37.0,3621.0,3546.0,3284.0
698,699,99.0,69.0,1.5,1.4,35.0,3418.0,3280.0,2999.0
699,700,198.0,138.0,3.0,2.8,69.0,6836.0,6782.0,6438.0
700,701,99.0,69.0,1.5,1.4,35.0,3418.0,3280.0,3141.0
701,702,97.0,67.0,1.5,1.4,34.0,3338.0,3235.0,2994.0
702,703,97.0,67.0,1.5,1.4,34.0,3338.0,3207.0,3081.0
703,704,99.0,69.0,1.5,1.4,35.0,3418.0,3325.0,3156.0
704,705,0.0,0.0,0.0,0.0,0.0,0.0,-80.0,-268.0
705,706,100.0,70.0,1.5,1.4,35.0,3458.0,3299.0,3150.0
706,707,200.0,140.0,3.0,2.8,70.0,6916.0,6779.0,6463.0
707,708,99.0,69.0,1.5,1.4,35.0,3418.0,3272.0,3023.0
708,709,101.0,70.0,1.5,1.4,35.0,3478.0,3415.0,3225.0
709,710,99.0,69.0,1.5,1.4,35.0,3418.0,3345.0,3160.0
710,711,99.0,69.0,1.5,1.4,35.0,3418.0,3356.0,3146.0
711,712,96.0,67.0,1.4,1.3,34.0,3314.0,3151.0,2851.0
712,713,100.0,70.0,1.5,1.4,35.0,3458.0,3332.0,3070.0
713,714,196.0,137.0,2.9,2.7,68.0,6771.0,6666.0,6427.0
714,715,100.0,70.0,1.5,1.4,35.0,3458.0,3406.0,3247.0
715,716,100.0,70.0,1.5,1.4,35.0,3458.0,3345.0,3070.0
716,717,100.0,70.0,1.5,1.4,35.0,3458.0,3310.0,3064.0
717,718,101.0,70.0,1.5,1.4,35.0,3478.0,3424.0,3162.0
718,719,99.0,69.0,1.5,1.4,35.0,3418.0,3311.0,3124.0
719,720,0.0,0.0,0.0,0.0,0.0,0.0,-181.0,-371.0
720,721,202.0,141.0,3.0,2.8,70.0,6976.0,6873.0,6702.0
721,722,101.0,70.0,1.5,1.4,35.0,3478.0,3303.0,3026.0
722,723,98.0,68.0,1.5,1.4,34.0,3378.0,3327.0,3015.0
723,724,100.0,70.0,1.5,1.4,35.0,3458.0,3290.0,3091.0
724,725,100.0,70.0,1.5,1.4,35.0,3458.0,3330.0,3217.0
725,726,99.0,69.0,1.5,1.4,35.0,3418.0,3291.0,2969.0
726,727,98.0,68.0,1.5,1.4,34.0,3378.0,3187.0,2873.0
727,728,206.0,144.0,3.1,2.9,72.0,7120.0,7002.0,6862.0
728,729,0.0,0.0,0.0,0.0,0.0,0.0,-168.0,-421.0
729,730,100.0,70.0,1.5,1.4,35.0,3458.0,3389.0,3278.0
730,731,97.0,67.0,1.5,1.4,34.0,3338.0,3267.0,3146.0
731,732,0.0,0.0,0.0,0.0,0.0,0.0,-134.0,-374.0
732,733,99.0,69.0,1.5,1.4,35.0,3418.0,3325.0,3211.0
733,734,98.0,68.0,1.5,1.4,34.0,3378.0,3218.0,2940.0
734,735,198.0,138.0,3.0,2.8,69.0,6836.0,6748.0,6418.0
735,736,101.0,70.0,1.5,1.4,35.0,3478.0,3384.0,3103.0
736,737,99.0,69.0,1.5,1.4,35.0,3418.0,3233.0,2992.0
737,738,102.0,71.0,1.5,1.4,36.0,3518.0,3467.0,3121.0
738,739,101.0,70.0,1.5,1.4,35.0,3478.0,3329.0,3081.0
739,740,100.0,70.0,1.5,1.4,35.0,3458.0,3339.0,3094.0
740,741,98.0,68.0,1.5,1.4,34.0,3378.0,3282.0,2983.0
741,742,0.0,0.0,0.0,0.0,0.0,0.0,-116.0,-306.0
742,743,99.0,69.0,1.5,1.4,35.0,3418.0,3313.0,3045.0
743,744,98.0,68.0,1.5,1.4,34.0,3378.0,3260.0,3036.0
744,745,0.0,0.0,0.0,0.0,0.0,0.0,-131.0,-238.0
745,746,99.0,69.0,1.5,1.4,35.0,3418.0,3305.0,3103.0
746,747,101.0,70.0,1.5,1.4,35.0,3478.0,3309.0,3103.0
747,748,100.0,70.0,1.5,1.4,35.0,3458.0,3405.0,3259.0
748,749,198.0,138.0,3.0,2.8,69.0,6836.0,6752.0,6574.0
749,750,100.0,70.0,1.5,1.4,35.0,3458.0,3375.0,3068.0
750,751,99.0,69.0,1.5,1.4,35.0,3418.0,3234.0,3040.0
751,752,0.0,0.0,0.0,0.0,0.0,0.0,-92.0,-335.0
752,753,99.0,69.0,1.5,1.4,35.0,3418.0,3297.0,3158.0
753,754,99.0,69.0,1.5,1.4,35.0,3418.0,3306.0,3022.0
754,755,101.0,70.0,1.5,1.4,35.0,3478.0,3389.0,3256.0
755,756,196.0,137.0,2.9,2.7,68.0,6771.0,6648.0,6420.0
756,757,0.0,0.0,0.0,0.0,0.0,0.0,-99.0,-365.0
757,758,98.0,68.0,1.5,1.4,34.0,3378.0,3310.0,3107.0
758,759,100.0,70.0,1.5,1.4,35.0,3458.0,3263.0,2991.0
759,760,100.0,70.0,1.5,1.4,35.0,3458.0,3310.0,3047.0
760,761,99.0,69.0,1.5,1.4,35.0,3418.0,3302.0,3120.0
761,762,101.0,70.0,1.5,1.4,35.0,3478.0,3383.0,3158.0
762,763,198.0,138.0,3.0,2.8,69.0,6836.0,6666.0,6343.0
763,764,102.0,71.0,1.5,1.4,36.0,3518.0,3449.0,3149.0
764,765,102.0,71.0,1.5,1.4,36.0,3518.0,3413.0,3100.0
765,766,0.0,0.0,0.0,0.0,0.0,0.0,-79.0,-355.0
766,767,101.0,70.0,1.5,1.4,35.0,3478.0,3293.0,3109.0
767,768,101.0,70.0,1.5,1.4,35.0,3478.0,3281.0,3043.0
768,769,101.0,70.0,1.5,1.4,35.0,3478.0,3410.0,3068.0
769,770,196.0,137.0,2.9,2.7,68.0,6771.0,6716.0,6536.0
770,771,102.0,71.0,1.5,1.4,36.0,3518.0,3449.0,3268.0
771,772,101.0,70.0,1.5,1.4,35.0,3478.0,3279.0,3045.0
772,773,102.0,71.0,1.5,1.4,36.0,3518.0,3403.0,3075.0
773,774,100.0,70.0,1.5,1.4,35.0,3458.0,3285.0,3136.0
774,775,104.0,72.0,1.6,1.5,36.0,3581.0,3404.0,3167.0
775,776,0.0,0.0,0.0,0.0,0.0,0.0,-112.0,-306.0
776,777,198.0,138.0,3.0,2.8,69.0,6836.0,6717.0,6580.0
777,778,99.0,69.0,1.5,1.4,35.0,3418.0,3345.0,3105.0
778,779,99.0,69.0,1.5,1.4,35.0,3418.0,3221.0,2972.0
779,780,100.0,70.0,1.5,1.4,35.0,3458.0,3307.0,3200.0
780,781,0.0,0.0,0.0,0.0,0.0,0.0,-55.0,-253.0
781,782,101.0,70.0,1.5,1.4,35.0,3478.0,3295.0,3157.0
782,783,103.0,72.0,1.5,1.4,36.0,3558.0,3404.0,3293.0
783,784,202.0,141.0,3.0,2.8,70.0,6976.0,6922.0,6647.0
784,785,99.0,69.0,1.5,1.4,35.0,3418.0,3314.0,3045.0
785,786,99.0,69.0,1.5,1.4,35.0,3418.0,3223.0,3000.0
786,787,102.0,71.0,1.5,1.4,36.0,3518.0,3338.0,2998.0
787,788,100.0,70.0,1.5,1.4,35.0,3458.0,3337.0,2988.0
788,789,99.0,69.0,1.5,1.4,35.0,3418.0,3303.0,3144.0
789,790,101.0,70.0,1.5,1.4,35.0,3478.0,3406.0,3133.0
790,791,200.0,140.0,3.0,2.8,70.0,6916.0,6772.0,6642.0
791,792,101.0,70.0,1.5,1.4,35.0,3478.0,3360.0,3028.0
792,793,100.0,70.0,1.5,1.4,35.0,3458.0,3377.0,3242.0
793,794,0.0,0.0,0.0,0.0,0.0,0.0,-58.0,-163.0
794,795,99.0,69.0,1.5,1.4,35.0,3418.0,3277.0,3082.0
795,796,100.0,70.0,1.5,1.4,35.0,3458.0,3402.0,3122.0
796,797,102.0,71.0,1.5,1.4,36.0,3518.0,3454.0,3291.0
797,798,0.0,0.0,0.0,0.0,0.0,0.0,-80.0,-317.0
798,799,99.0,69.0,1.5,1.4,35.0,3418.0,3236.0,2998.0
799,800,0.0,0.0,0.0,0.0,0.0,0.0,-137.0,-260.0
800,801,98.0,68.0,1.5,1.4,34.0,3378.0,3204.0,2871.0
801,802,101.0,70.0,1.5,1.4,35.0,3478.0,3403.0,3285.0
802,803,100.0,70.0,1.5,1.4,35.0,3458.0,3265.0,2922.0
803,804,100.0,70.0,1.5,1.4,35.0,3458.0,3267.0,2947.0
804,805,200.0,140.0,3.0,2.8,70.0,6916.0,6759.0,6535.0
805,806,100.0,70.0,1.5,1.4,35.0,3458.0,3360.0,3162.0
806,807,100.0,70.0,1.5,1.4,35.0,3458.0,3408.0,3081.0
807,808,101.0,70.0,1.5,1.4,35.0,3478.0,3314.0,3038.0
808,809,101.0,70.0,1.5,1.4,35.0,3478.0,3342.0,3010.0
809,810,99.0,69.0,1.5,1.4,35.0,3418.0,3345.0,3105.0
810,811,101.0,70.0,1.5,1.4,35.0,3478.0,3314.0,2970.0
811,812,200.0,140.0,3.0,2.8,70.0,6916.0,6817.0,6487.0
812,813,99.0,69.0,1.5,1.4,35.0,3418.0,3343.0,3162.0
813,814,99.0,69.0,1.5,1.4,35.0,3418.0,3277.0,3058.0
814,815,101.0,70.0,1.5,1.4,35.0,3478.0,3346.0,3140.0
815,816,98.0,68.0,1.5,1.4,34.0,3378.0,3224.0,3093.0
816,817,101.0,70.0,1.5,1.4,35.0,3478.0,3402.0,3190.0
817,818,99.0,69.0,1.5,1.4,35.0,3418.0,3321.0,2980.0
818,819,200.0,140.0,3.0,2.8,70.0,6916.0,6732.0,6427.0
819,820,99.0,69.0,1.5,1.4,35.0,3418.0,3276.0,2958.0
820,821,102.0,71.0,1.5,1.4,36.0,3518.0,3392.0,3244.0
821,822,99.0,69.0,1.5,1.4,35.0,3418.0,3326.0,3080.0
822,823,99.0,69.0,1.5,1.4,35.0,3418.0,3265.0,2935.0
823,824,102.0,71.0,1.5,1.4,36.0,3518.0,3385.0,3210.0
824,825,99.0,69.0,1.5,1.4,35.0,3418.0,3362.0,3236.0
825,826,198.0,138.0,3.0,2.8,69.0,6836.0,6748.0,6494.0
826,827,102.0,71.0,1.5,1.4,36.0,3518.0,3431.0,3130.0
827,828,100.0,70.0,1.5,1.4,35.0,3458.0,3307.0,3009.0
828,829,99.0,69.0,1.5,1.4,35.0,3418.0,3337.0,3180.0
829,830,99.0,69.0,1.5,1.4,35.0,3418.0,3248.0,3109.0
830,831,99.0,69.0,1.5,1.4,35.0,3418.0,3269.0,2923.0
831,832,101.0,70.0,1.5,1.4,35.0,3478.0,3323.0,3156.0
832,833,204.0,142.0,3.1,2.9,71.0,7040.0,6911.0,6758.0
833,834,99.0,69.0,1.5,1.4,35.0,3418.0,3295.0,3023.0
834,835,99.0,69.0,1.5,1.4,35.0,3418.0,3353.0,3137.0
835,836,101.0,70.0,1.5,1.4,35.0,3478.0,3341.0,3022.0
836,837,98.0,68.0,1.5,1.4,34.0,3378.0,3302.0,3019.0
837,838,99.0,69.0,1.5,1.4,35.0,3418.0,3343.0,2999.0
838,839,100.0,70.0,1.5,1.4,35.0,3458.0,3281.0,3047.0
839,840,200.0,140.0,3.0,2.8,70.0,6916.0,6743.0,6444.0
840,841,99.0,69.0,1.5,1.4,35.0,3418.0,3333.0,3037.0
841,842,98.0,68.0,1.5,1.4,34.0,3378.0,3328.0,3049.0
842,843,100.0,70.0,1.5,1.4,35.0,3458.0,3347.0,3093.0
843,844,99.0,69.0,1.5,1.4,35.0,3418.0,3327.0,2993.0
844,845,97.0,67.0,1.5,1.4,34.0,3338.0,3274.0,3017.0
845,846,100.0,70.0,1.5,1.4,35.0,3458.0,3401.0,3086.0
846,847,196.0,137.0,2.9,2.7,68.0,6771.0,6664.0,6515.0
847,848,100.0,70.0,1.5,1.4,35.0,3458.0,3399.0,3158.0
848,849,103.0,72.0,1.5,1.4,36.0,3558.0,3405.0,3083.0
849,850,98.0,68.0,1.5,1.4,34.0,3378.0,3314.0,3002.0
850,851,0.0,0.0,0.0,0.0,0.0,0.0,-102.0,-375.0
851,852,99.0,69.0,1.5,1.4,35.0,3418.0,3294.0,3126.0
852,853,101.0,70.0,1.5,1.4,35.0,3478.0,3419.0,3309.0
853,854,194.0,135.0,2.9,2.7,67.0,6691.0,6611.0,6468.0
854,855,101.0,70.0,1.5,1.4,35.0,3478.0,3395.0,3048.0
855,856,99.0,69.0,1.5,1.4,35.0,3418.0,3253.0,2938.0
856,857,0.0,0.0,0.0,0.0,0.0,0.0,-182.0,-351.0
857,858,101.0,70.0,1.5,1.4,35.0,3478.0,3382.0,3169.0
858,859,101.0,70.0,1.5,1.4,35.0,3478.0,3403.0,3171.0
859,860,100.0,70.0,1.5,1.4,35.0,3458.0,3391.0,3121.0
860,861,196.0,137.0,2.9,2.7,68.0,6771.0,6621.0,6375.0
861,862,98.0,68.0,1.5,1.4,34.0,3378.0,3289.0,3138.0
862,863,101.0,70.0,1.5,1.4,35.0,3478.0,3402.0,3136.0
863,864,97.0,67.0,1.5,1.4,34.0,3338.0,3261.0,3039.0
864,865,101.0,70.0,1.5,1.4,35.0,3478.0,3390.0,3238.0
865,866,101.0,70.0,1.5,1.4,35.0,3478.0,3388.0,3201.0
866,867,101.0,70.0,1.5,1.4,35.0,3478.0,3280.0,3003.0
867,868,192.0,134.0,2.9,2.7,67.0,6631.0,6463.0,6204.0
868,869,96.0,67.0,1.4,1.3,34.0,3314.0,3118.0,2959.0
869,870,95.0,66.0,1.4,1.3,33.0,3274.0,3096.0,2953.0
870,871,98.0,68.0,1.5,1.4,34.0,3378.0,3238.0,3111.0
871,872,100.0,70.0,1.5,1.4,35.0,3458.0,3273.0,3004.0
872,873,101.0,70.0,1.5,1.4,35.0,3478.0,3368.0,3124.0
873,874,99.0,69.0,1.5,1.4,35.0,3418.0,3318.0,3006.0
874,875,198.0,138.0,3.0,2.8,69.0,6836.0,6744.0,6592.0
875,876,99.0,69.0,1.5,1.4,35.0,3418.0,3312.0,3059.0
876,877,96.0,67.0,1.4,1.3,34.0,3314.0,3167.0,2926.0
877,878,100.0,70.0,1.5,1.4,35.0,3458.0,3298.0,3159.0
878,879,101.0,70.0,1.5,1.4,35.0,3478.0,3336.0,3146.0
879,880,100.0,70.0,1.5,1.4,35.0,3458.0,3291.0,3190.0
880,881,98.0,68.0,1.5,1.4,34.0,3378.0,3250.0,2956.0
881,882,200.0,140.0,3.0,2.8,70.0,6916.0,6842.0,6703.0
882,883,0.0,0.0,0.0,0.0,0.0,0.0,-79.0,-312.0
883,884,98.0,68.0,1.5,1.4,34.0,3378.0,3221.0,3040.0
884,885,98.0,68.0,1.5,1.4,34.0,3378.0,3285.0,3182.0
885,886,100.0,70.0,1.5,1.4,35.0,3458.0,3388.0,3070.0
886,887,98.0,68.0,1.5,1.4,34.0,3378.0,3285.0,3007.0
887,888,102.0,71.0,1.5,1.4,36.0,3518.0,3330.0,3213.0
888,889,194.0,135.0,2.9,2.7,67.0,6691.0,6626.0,6410.0
889,890,99.0,69.0,1.5,1.4,35.0,3418.0,3331.0,3194.0
890,891,0.0,0.0,0.0,0.0,0.0,0.0,-177.0,-520.0
891,892,98.0,68.0,1.5,1.4,34.0,3378.0,3287.0,2986.0
892,893,98.0,68.0,1.5,1.4,34.0,3378.0,3294.0,2951.0
893,894,99.0,69.0,1.5,1.4,35.0,3418.0,3339.0,3063.0
894,895,100.0,70.0,1.5,1.4,35.0,3458.0,3349.0,3113.0
895,896,200.0,140.0,3.0,2.8,70.0,6916.0,6821.0,6634.0
896,897,98.0,68.0,1.5,1.4,34.0,3378.0,3237.0,3085.0
897,898,105.0,73.0,1.6,1.5,37.0,3621.0,3498.0,3398.0
898,899,99.0,69.0,1.5,1.4,35.0,3418.0,3223.0,3065.0
899,900,99.0,69.0,1.5,1.4,35.0,3418.0,3337.0,3142.0
900,901,103.0,72.0,1.5,1.4,36.0,3558.0,3424.0,3085.0
901,902,100.0,70.0,1.5,1.4,35.0,3458.0,3294.0,2981.0
902,903,194.0,135.0,2.9,2.7,67.0,6691.0,6535.0,6230.0
903,904,100.0,70.0,1.5,1.4,35.0,3458.0,3331.0,3018.0
904,905,100.0,70.0,1.5,1.4,35.0,3458.0,3347.0,3108.0
905,906,98.0,68.0,1.5,1.4,34.0,3378.0,3208.0,2951.0
906,907,101.0,70.0,1.5,1.4,35.0,3478.0,3419.0,3257.0
907,908,97.0,67.0,1.5,1.4,34.0,3338.0,3197.0,2914.0
908,909,99.0,69.0,1.5,1.4,35.0,3418.0,3338.0,3119.0
909,910,198.0,138.0,3.0,2.8,69.0,6836.0,6772.0,6442.0
910,911,101.0,70.0,1.5,1.4,35.0,3478.0,3381.0,3071.0
911,912,99.0,69.0,1.5,1.4,35.0,3418.0,3308.0,2959.0
912,913,100.0,70.0,1.5,1.4,35.0,3458.0,3385.0,3047.0
913,914,101.0,70.0,1.5,1.4,35.0,3478.0,3291.0,3129.0
914,915,99.0,69.0,1.5,1.4,35.0,3418.0,3273.0,3077.0
915,916,98.0,68.0,1.5,1.4,34.0,3378.0,3244.0,2994.0
916,917,198.0,138.0,3.0,2.8,69.0,6836.0,6677.0,6332.0
917,918,98.0,68.0,1.5,1.4,34.0,3378.0,3242.0,3067.0
918,919,98.0,68.0,1.5,1.4,34.0,3378.0,3269.0,2959.0
919,920,101.0,70.0,1.5,1.4,35.0,3478.0,3329.0,3120.0
920,921,100.0,70.0,1.5,1.4,35.0,3458.0,3284.0,2962.0
921,922,99.0,69.0,1.5,1.4,35.0,3418.0,3314.0,3025.0
922,923,0.0,0.0,0.0,0.0,0.0,0.0,-93.0,-393.0
923,924,198.0,138.0,3.0,2.8,69.0,6836.0,6738.0,6478.0
924,925,0.0,0.0,0.0,0.0,0.0,0.0,-57.0,-322.0
925,926,102.0,71.0,1.5,1.4,36.0,3518.0,3407.0,3291.0
926,927,102.0,71.0,1.5,1.4,36.0,3518.0,3336.0,3196.0
927,928,100.0,70.0,1.5,1.4,35.0,3458.0,3315.0,3023.0
928,929,0.0,0.0,0.0,0.0,0.0,0.0,-128.0,-253.0
929,930,99.0,69.0,1.5,1.4,35.0,3418.0,3226.0,2904.0
930,931,194.0,135.0,2.9,2.7,67.0,6691.0,6570.0,6445.0
931,932,0.0,0.0,0.0,0.0,0.0,0.0,-52.0,-304.0
932,933,101.0,70.0,1.5,1.4,35.0,3478.0,3346.0,3013.0
933,934,100.0,70.0,1.5,1.4,35.0,3458.0,3328.0,3228.0
934,935,102.0,71.0,1.5,1.4,36.0,3518.0,3458.0,3294.0
935,936,101.0,70.0,1.5,1.4,35.0,3478.0,3388.0,3179.0
936,937,100.0,70.0,1.5,1.4,35.0,3458.0,3310.0,3002.0
937,938,194.0,135.0,2.9,2.7,67.0,6691.0,6532.0,6274.0
938,939,99.0,69.0,1.5,1.4,35.0,3418.0,3347.0,3146.0
939,940,99.0,69.0,1.5,1.4,35.0,3418.0,3269.0,3047.0
940,941,102.0,71.0,1.5,1.4,36.0,3518.0,3407.0,3148.0
941,942,0.0,0.0,0.0,0.0,0.0,0.0,-169.0,-293.0
942,943,100.0,70.0,1.5,1.4,35.0,3458.0,3287.0,2993.0
943,944,100.0,70.0,1.5,1.4,35.0,3458.0,3393.0,3274.0
944,945,204.0,142.0,3.1,2.9,71.0,7040.0,6968.0,6674.0
945,946,0.0,0.0,0.0,0.0,0.0,0.0,-169.0,-505.0
946,947,102.0,71.0,1.5,1.4,36.0,3518.0,3401.0,3195.0
947,948,102.0,71.0,1.5,1.4,36.0,3518.0,3319.0,3010.0
948,949,99.0,69.0,1.5,1.4,35.0,3418.0,3262.0,3139.0
949,950,100.0,70.0,1.5,1.4,35.0,3458.0,3341.0,3125.0
950,951,98.0,68.0,1.5,1.4,34.0,3378.0,3237.0,3112.0
951,952,202.0,141.0,3.0,2.8,70.0,6976.0,6777.0,6621.0
952,953,100.0,70.0,1.5,1.4,35.0,3458.0,3297.0,2965.0
953,954,100.0,70.0,1.5,1.4,35.0,3458.0,3368.0,3181.0
954,955,0.0,0.0,0.0,0.0,0.0,0.0,-64.0,-232.0
955,956,98.0,68.0,1.5,1.4,34.0,3378.0,3304.0,3123.0
956,957,100.0,70.0,1.5,1.4,35.0,3458.0,3393.0,3044.0
957,958,97.0,67.0,1.5,1.4,34.0,3338.0,3268.0,3016.0
958,959,0.0,0.0,0.0,0.0,0.0,0.0,-195.0,-506.0
959,960,100.0,70.0,1.5,1.4,35.0,3458.0,3301.0,2993.0
960,961,98.0,68.0,1.5,1.4,34.0,3378.0,3229.0,2901.0
961,962,100.0,70.0,1.5,1.4,35.0,3458.0,3344.0,3054.0
962,963,0.0,0.0,0.0,0.0,0.0,0.0,-66.0,-244.0
963,964,99.0,69.0,1.5,1.4,35.0,3418.0,3252.0,3075.0
964,965,102.0,71.0,1.5,1.4,36.0,3518.0,3428.0,3304.0
965,966,204.0,142.0,3.1,2.9,71.0,7040.0,6939.0,6662.0
966,967,0.0,0.0,0.0,0.0,0.0,0.0,-92.0,-217.0
967,968,98.0,68.0,1.5,1.4,34.0,3378.0,3307.0,3091.0
968,969,99.0,69.0,1.5,1.4,35.0,3418.0,3238.0,3068.0
969,970,98.0,68.0,1.5,1.4,34.0,3378.0,3288.0,3090.0
970,971,100.0,70.0,1.5,1.4,35.0,3458.0,3340.0,3189.0
971,972,98.0,68.0,1.5,1.4,34.0,3378.0,3272.0,2992.0
972,973,196.0,137.0,2.9,2.7,68.0,6771.0,6638.0,6490.0
973,974,101.0,70.0,1.5,1.4,35.0,3478.0,3396.0,3183.0
974,975,100.0,70.0,1.5,1.4,35.0,3458.0,3265.0,3070.0
975,976,101.0,70.0,1.5,1.4,35.0,3478.0,3379.0,3141.0
976,977,102.0,71.0,1.5,1.4,36.0,3518.0,3428.0,3107.0
977,978,100.0,70.0,1.5,1.4,35.0,3458.0,3321.0,3116.0
978,979,100.0,70.0,1.5,1.4,35.0,3458.0,3385.0,3136.0
979,980,194.0,135.0,2.9,2.7,67.0,6691.0,6496.0,6340.0
980,981,101.0,70.0,1.5,1.4,35.0,3478.0,3396.0,3115.0
981,982,99.0,69.0,1.5,1.4,35.0,3418.0,3264.0,3055.0
982,983,99.0,69.0,1.5,1.4,35.0,3418.0,3328.0,3118.0
983,984,0.0,0.0,0.0,0.0,0.0,0.0,-103.0,-278.0
984,985,98.0,68.0,1.5,1.4,34.0,3378.0,3218.0,3103.0
985,986,0.0,0.0,0.0,0.0,0.0,0.0,-194.0,-513.0
986,987,198.0,138.0,3.0,2.8,69.0,6836.0,6757.0,6510.0
987,988,98.0,68.0,1.5,1.4,34.0,3378.0,3287.0,3007.0
988,989,99.0,69.0,1.5,1.4,35.0,3418.0,3270.0,2959.0
989,990,99.0,69.0,1.5,1.4,35.0,3418.0,3233.0,2903.0
990,991,100.0,70.0,1.5,1.4,35.0,3458.0,3268.0,3010.0
991,992,96.0,67.0,1.4,1.3,34.0,3314.0,3258.0,3047.0
992,993,101.0,70.0,1.5,1.4,35.0,3478.0,3280.0,2957.0
993,994,196.0,137.0,2.9,2.7,68.0,6771.0,6622.0,6323.0
994,995,98.0,68.0,1.5,1.4,34.0,3378.0,3289.0,2942.0
995,996,0.0,0.0,0.0,0.0,0.0,0.0,-144.0,-367.0
996,997,100.0,70.0,1.5,1.4,35.0,3458.0,3364.0,3115.0
997,998,100.0,70.0,1.5,1.4,35.0,3458.0,3393.0,3203.0
998,999,0.0,0.0,0.0,0.0,0.0,0.0,-54.0,-176.0
999,1000,0.0,0.0,0.0,0.0,0.0,0.0,-168.0,-459.0
1000,1001,200.0,140.0,3.0,2.8,70.0,6916.0,6863.0,6534.0
1001,1002,98.0,68.0,1.5,1.4,34.0,3378.0,3295.0,3029.0
1002,1003,0.0,0.0,0.0,0.0,0.0,0.0,-51.0,-216.0
1003,1004,100.0,70.0,1.5,1.4,35.0,3458.0,3356.0,3114.0
1004,1005,100.0,70.0,1.5,1.4,35.0,3458.0,3348.0,3180.0
1005,1006,98.0,68.0,1.5,1.4,34.0,3378.0,3212.0,2995.0
1006,1007,100.0,70.0,1.5,1.4,35.0,3458.0,3311.0,3047.0
1007,1008,196.0,137.0,2.9,2.7,68.0,6771.0,6720.0,6425.0
1008,1009,0.0,0.0,0.0,0.0,0.0,0.0,-109.0,-325.0
1009,1010,99.0,69.0,1.5,1.4,35.0,3418.0,3227.0,3086.0
1010,1011,99.0,69.0,1.5,1.4,35.0,3418.0,3251.0,2939.0
1011,1012,99.0,69.0,1.5,1.4,35.0,3418.0,3315.0,2966.0
1012,1013,100.0,70.0,1.5,1.4,35.0,3458.0,3318.0,3217.0
1013,1014,101.0,70.0,1.5,1.4,35.0,3478.0,3322.0,3007.0
1014,1015,200.0,140.0,3.0,2.8,70.0,6916.0,6740.0,6579.0
1015,1016,97.0,67.0,1.5,1.4,34.0,3338.0,3287.0,2995.0
1016,1017,98.0,68.0,1.5,1.4,34.0,3378.0,3193.0,3035.0
1017,1018,97.0,67.0,1.5,1.4,34.0,3338.0,3281.0,2968.0
1018,1019,97.0,67.0,1.5,1.4,34.0,3338.0,3163.0,2877.0
1019,1020,98.0,68.0,1.5,1.4,34.0,3378.0,3328.0,3137.0
1020,1021,0.0,0.0,0.0,0.0,0.0,0.0,-137.0,-247.0
1021,1022,200.0,140.0,3.0,2.8,70.0,6916.0,6758.0,6473.0
1022,1023,101.0,70.0,1.5,1.4,35.0,3478.0,3330.0,3228.0
1023,1024,100.0,70.0,1.5,1.4,35.0,3458.0,3361.0,3074.0
1024,1025,100.0,70.0,1.5,1.4,35.0,3458.0,3314.0,3166.0
1025,1026,97.0,67.0,1.5,1.4,34.0,3338.0,3173.0,2889.0
1026,1027,101.0,70.0,1.5,1.4,35.0,3478.0,3314.0,3101.0
1027,1028,100.0,70.0,1.5,1.4,35.0,3458.0,3379.0,3077.0
1028,1029,196.0,137.0,2.9,2.7,68.0,6771.0,6652.0,6458.0
1029,1030,99.0,69.0,1.5,1.4,35.0,3418.0,3220.0,3055.0
1030,1031,98.0,68.0,1.5,1.4,34.0,3378.0,3246.0,2962.0
1031,1032,0.0,0.0,0.0,0.0,0.0,0.0,-179.0,-403.0
1032,1033,0.0,0.0,0.0,0.0,0.0,0.0,-179.0,-347.0
1033,1034,101.0,70.0,1.5,1.4,35.0,3478.0,3307.0,3061.0
1034,1035,100.0,70.0,1.5,1.4,35.0,3458.0,3312.0,3022.0
1035,1036,198.0,138.0,3.0,2.8,69.0,6836.0,6676.0,6524.0
1036,1037,98.0,68.0,1.5,1.4,34.0,3378.0,3238.0,2938.0
1037,1038,102.0,71.0,1.5,1.4,36.0,3518.0,3350.0,3248.0
1038,1039,0.0,0.0,0.0,0.0,0.0,0.0,-67.0,-396.0
1039,1040,100.0,70.0,1.5,1.4,35.0,3458.0,3385.0,3210.0
1040,1041,0.0,0.0,0.0,0.0,0.0,0.0,-107.0,-336.0
1041,1042,0.0,0.0,0.0,0.0,0.0,0.0,-107.0,-231.0
1042,1043,198.0,138.0,3.0,2.8,69.0,6836.0,6739.0,6587.0
1043,1044,100.0,70.0,1.5,1.4,35.0,3458.0,3310.0,3098.0
1044,1045,103.0,72.0,1.5,1.4,36.0,3558.0,3486.0,3300.0
1045,1046,99.0,69.0,1.5,1.4,35.0,3418.0,3233.0,2941.0
1046,1047,99.0,69.0,1.5,1.4,35.0,3418.0,3337.0,2997.0
1047,1048,99.0,69.0,1.5,1.4,35.0,3418.0,3322.0,3169.0
1048,1049,0.0,0.0,0.0,0.0,0.0,0.0,-160.0,-476.0
1049,1050,202.0,141.0,3.0,2.8,70.0,6976.0,6845.0,6702.0
1050,1051,101.0,70.0,1.5,1.4,35.0,3478.0,3302.0,3175.0
1051,1052,98.0,68.0,1.5,1.4,34.0,3378.0,3308.0,3140.0
1052,1053,0.0,0.0,0.0,0.0,0.0,0.0,-188.0,-398.0
1053,1054,99.0,69.0,1.5,1.4,35.0,3418.0,3284.0,3087.0
1054,1055,101.0,70.0,1.5,1.4,35.0,3478.0,3374.0,3105.0
1055,1056,98.0,68.0,1.5,1.4,34.0,3378.0,3227.0,3101.0
1056,1057,198.0,138.0,3.0,2.8,69.0,6836.0,6637.0,6330.0
1057,1058,101.0,70.0,1.5,1.4,35.0,3478.0,3335.0,3042.0
1058,1059,101.0,70.0,1.5,1.4,35.0,3478.0,3371.0,3248.0
1059,1060,0.0,0.0,0.0,0.0,0.0,0.0,-119.0,-400.0
1060,1061,99.0,69.0,1.5,1.4,35.0,3418.0,3299.0,3067.0
1061,1062,102.0,71.0,1.5,1.4,36.0,3518.0,3426.0,3097.0
1062,1063,98.0,68.0,1.5,1.4,34.0,3378.0,3187.0,3001.0
1063,1064,200.0,140.0,3.0,2.8,70.0,6916.0,6743.0,6492.0
1064,1065,98.0,68.0,1.5,1.4,34.0,3378.0,3321.0,3182.0
1065,1066,98.0,68.0,1.5,1.4,34.0,3378.0,3286.0,3093.0
1066,1067,96.0,67.0,1.4,1.3,34.0,3314.0,3250.0,3024.0
1067,1068,98.0,68.0,1.5,1.4,34.0,3378.0,3208.0,3085.0
1068,1069,99.0,69.0,1.5,1.4,35.0,3418.0,3249.0,3052.0
1069,1070,98.0,68.0,1.5,1.4,34.0,3378.0,3253.0,3116.0
1070,1071,200.0,140.0,3.0,2.8,70.0,6916.0,6760.0,6624.0
1071,1072,101.0,70.0,1.5,1.4,35.0,3478.0,3424.0,3262.0
1072,1073,98.0,68.0,1.5,1.4,34.0,3378.0,3189.0,2860.0
1073,1074,100.0,70.0,1.5,1.4,35.0,3458.0,3301.0,3137.0
1074,1075,102.0,71.0,1.5,1.4,36.0,3518.0,3371.0,3187.0
1075,1076,0.0,0.0,0.0,0.0,0.0,0.0,-188.0,-382.0
1076,1077,98.0,68.0,1.5,1.4,34.0,3378.0,3321.0,3033.0
1077,1078,0.0,0.0,0.0,0.0,0.0,0.0,-129.0,-478.0
1078,1079,103.0,72.0,1.5,1.4,36.0,3558.0,3380.0,3089.0
1079,1080,99.0,69.0,1.5,1.4,35.0,3418.0,3277.0,3118.0
1080,1081,100.0,70.0,1.5,1.4,35.0,3458.0,3316.0,2999.0
1081,1082,98.0,68.0,1.5,1.4,34.0,3378.0,3268.0,3076.0
1082,1083,100.0,70.0,1.5,1.4,35.0,3458.0,3273.0,2984.0
1083,1084,100.0,70.0,1.5,1.4,35.0,3458.0,3384.0,3100.0
1084,1085,200.0,140.0,3.0,2.8,70.0,6916.0,6794.0,6614.0
1085,1086,101.0,70.0,1.5,1.4,35.0,3478.0,3370.0,3174.0
1086,1087,98.0,68.0,1.5,1.4,34.0,3378.0,3196.0,2854.0
1087,1088,101.0,70.0,1.5,1.4,35.0,3478.0,3361.0,3246.0
1088,1089,0.0,0.0,0.0,0.0,0.0,0.0,-109.0,-223.0
1089,1090,96.0,67.0,1.4,1.3,34.0,3314.0,3261.0,2985.0
1090,1091,100.0,70.0,1.5,1.4,35.0,3458.0,3303.0,3175.0
1091,1092,198.0,138.0,3.0,2.8,69.0,6836.0,6641.0,6298.0
1092,1093,99.0,69.0,1.5,1.4,35.0,3418.0,3309.0,2963.0
1093,1094,99.0,69.0,1.5,1.4,35.0,3418.0,3306.0,3003.0
1094,1095,102.0,71.0,1.5,1.4,36.0,3518.0,3403.0,3127.0
