,year,number_breeding_storkpairs_brandenburg,number_births_brandenburg
1,1996,1354,15140
2,1997,1127,16370
3,1998,1316,17146
4,1999,1357,17928
5,2000,1405,18444
6,2001,1372,17692
7,2002,1369,17704
8,2003,1318,17970
9,2004,1409,18148
10,2005,1181,17910
