,year,amount_of_rain_(mm),amount_of_rice_harvested_(10^6 tons)
0,1900,1008.2315478430936,66.2807676055535
1,1901,1918.1988455404394,100.53941522871177
2,1902,1623.5238043116447,103.51325749516299
3,1903,3552.9194862755494,151.57025375405092
4,1904,2040.781027694831,105.50286598753802
5,1905,2121.7587096470033,129.41883687138983
6,1906,2284.7505847660173,117.62452305296746
7,1907,1617.10847144004,54.92631507565709
8,1908,1480.0664009933662,66.894935941028
9,1909,1567.4374332929428,76.86659927400093
10,1910,1855.9184087820904,88.44966899277672
11,1911,2082.8845096856485,100.45006891372901
12,1912,1863.2566814311645,70.57763914752059
13,1913,2495.8163964359283,225.31527616367396
14,1914,1668.2893712820799,88.62699558583421
15,1915,3190.4374701065044,125.61182193372431
16,1916,3277.0463934239815,162.9809748751041
17,1917,2393.6821298879227,116.57665108139774
18,1918,1756.8705606107865,74.43220963875078
19,1919,2112.995950253071,110.96698231531019
20,1920,1907.9237433294277,88.97595085679663
21,1921,2497.7689976750203,139.2400100373815
22,1922,1992.4279139639832,113.75947164254774
23,1923,1275.5232469558814,63.79505075601339
24,1924,2251.496940608605,105.10740270767658
25,1925,2716.197459343758,118.63611507602894
26,1926,1639.3818689927698,59.66963402316526
27,1927,1560.082584607858,93.60303365840737
28,1928,2530.1525722145143,121.65668477664205
29,1929,2358.9041245103626,186.20899438632443
30,1930,1243.9885750789208,70.94948618915137
31,1931,2165.959945142827,139.18866165504707
32,1932,2486.371874199406,108.97163815126817
33,1933,1751.2445283785478,85.65729994888622
34,1934,1565.9706845617281,51.35825594375429
35,1935,1863.7153438532075,70.53685321710275
36,1936,1699.4363339939755,97.55101625366132
37,1937,2341.53482792151,130.96027574750954
38,1938,2533.351361755448,118.62636685077071
39,1939,2124.9474244439307,93.9268598524827
40,1940,2229.5585980106334,107.28730610503175
41,1941,2054.813523569051,108.98763834426478
42,1942,1169.8198152748573,56.86843796946105
43,1943,2015.359088322103,97.94131056563286
44,1944,2220.289944651198,109.45031951824525
45,1945,2074.969237223884,93.25910716095937
46,1946,1669.136698323126,70.48247183898475
47,1947,1296.963869656538,66.23899317555987
48,1948,1992.849514327162,113.27972079954583
49,1949,1818.3256572797702,95.09919795521898
50,1950,2134.2103126152697,107.0989357429502
51,1951,1557.1655484452747,57.57902299917394
52,1952,1555.3759779457378,58.49770103256487
53,1953,2407.5385962666305,131.7612615134032
54,1954,1801.1815583626217,75.49726792723241
55,1955,2178.4059939001118,122.9475222775441
56,1956,1935.3379802461498,180.24273933011477
57,1957,2576.5008699590744,149.60439426218676
58,1958,1978.2916437478777,98.57356716488638
59,1959,1807.1660018707503,86.59369459183593
60,1960,2172.6632215433356,102.0253590729979
61,1961,1587.866101873634,87.70517788494733
62,1962,2212.45996361424,103.81240600090584
63,1963,1581.9153720904887,75.99920007295397
64,1964,2780.7569614904123,156.9800208898137
65,1965,2168.694774768161,107.90477878944525
66,1966,1988.8391594907948,101.66891455857963
67,1967,1481.6085798415334,64.4192517259485
68,1968,2069.667819987871,106.3526527728703
69,1969,1558.990858510861,151.47889276276578
70,1970,2198.753532084828,95.71879595470855
71,1971,2147.1455121843346,200.37345394734166
72,1972,2186.7563142874765,114.91264626710985
73,1973,2055.8931682934367,99.07699135953038
74,1974,2571.144900649702,138.7838223517643
75,1975,1329.0234097760608,75.87887371679103
76,1976,1297.7075052453886,76.5196259450058
77,1977,894.2456965250578,54.41276373896014
78,1978,1735.652927140283,164.81905423322922
79,1979,1758.0964207704355,101.48475198744796
80,1980,1567.4884332501335,72.79449517769238
81,1981,2140.059572860429,199.8632338380889
82,1982,2147.0894390380117,92.80041274605425
83,1983,1917.5395380871269,112.14647140977404
84,1984,1366.1189099308824,81.4338884649315
85,1985,2228.824255332746,128.51974537881807
86,1986,2665.6737873047314,144.0563412637901
87,1987,1354.7598229893933,72.74440061578491
88,1988,2030.4748492198075,80.24925979277151
89,1989,2944.7516819656657,136.36214919636222
90,1990,2079.103180809703,102.10777549758676
91,1991,1376.723878024533,64.07703630797468
92,1992,1655.5314715024208,84.1228175291723
93,1993,1652.4378622325783,50.364208173583556
94,1994,2098.3033129559535,109.42561133791146
95,1995,2061.962470461194,108.46599520669524
96,1996,2098.16019866792,86.9092646020913
97,1997,2307.0786513381013,114.48414266676953
98,1998,2554.981149513755,120.71452329075846
99,1999,1863.615989184052,102.29276548935616
100,2000,2379.3012503405143,103.31951153667227
101,2001,2484.628602325729,149.8098543839604
102,2002,1646.108230633036,92.45498432642356
103,2003,2566.151383552713,176.6195706142548
104,2004,1551.581333476287,75.71128604942496
105,2005,1856.716465868444,106.57444902645838
106,2006,1903.8642530395919,117.5978364412703
107,2007,2268.1437275055473,125.2273389698465
108,2008,1738.5931399693036,102.03746740896088
109,2009,2305.8997538932426,132.74117668794526
110,2010,2179.5008498547527,91.86170946076761
111,2011,1365.9219894110538,189.9438306884822
112,2012,1973.5679724120919,99.92715985021324
113,2013,2850.3563012296095,147.6379446286924
114,2014,1948.709006662472,123.56789151846331
115,2015,2065.810955315644,99.9171441400911
116,2016,1854.1903455486633,84.09182526377529
117,2017,2543.783673711823,127.26313960745566
118,2018,1900.786662010145,123.64982838271192
119,2019,1947.4987040467297,136.51477450315434
120,2020,2268.071860486793,268.3319151207976
