,X,Y
0,-0.559411475264695,0.9500280039835682
1,0.6660033352667889,-0.5423072473448926
2,1.9963526907028317,0.2936370864625513
3,-0.18513157093102833,1.0984148663411823
4,1.4876856317369818,-0.1605145888393098
5,1.3687983533838206,-0.24320363622169622
6,-0.6464604162533549,0.9768431626189567
7,0.8475009328979606,0.0329537481086971
8,1.973076791612024,0.6140762863515347
9,1.0890235576929308,0.44962508569597975
10,-0.16134663228132926,0.8083955320881823
11,-1.0030174013969921,0.6267377327790988
12,0.14421285659476046,0.012125822947621503
13,0.1464107959947463,0.13979980344687415
14,-0.9242659831000711,0.41822957799222304
15,-1.1164954534869398,-0.10546326235462887
16,0.8419148139097453,0.2646524474891669
17,0.9391169058356527,0.47136317843934755
18,1.9260920063178388,0.25199882164151244
19,-0.878541452994848,0.24475487493989162
20,-0.6297347249665611,0.874057158894912
21,1.2703712200424095,-0.5033124538529676
22,1.9980378146213478,0.40659819828034943
23,0.061174748907941556,-0.09465856926634077
24,0.16904692389199583,0.18283094081467874
25,-0.9508353441271095,0.8288601803797904
26,1.8563537009605833,-0.11594062490681181
27,1.9749841698278425,0.42878100380219536
28,1.7022660920715509,-0.32991361345595044
29,0.10063623216597539,1.0618574822677893
30,0.5542631002457483,-0.4192042176819091
31,-0.13723908887662228,0.8833497364668361
32,0.846272921444913,-0.47486142244917184
33,1.1936626894050577,0.38410024019127764
34,0.2520044039473348,-0.3423877138755765
35,0.007580301429532074,-0.09707740849661242
36,-0.023380314844816275,0.512782853014667
37,1.2784870676680224,-0.37251818390434566
38,0.5515787852836321,1.0999875198518898
39,0.5864745645417492,0.8965148497269669
40,0.5694180709735932,-0.1944971603690045
41,-0.925995222244082,0.5048434462711708
42,0.6750696752665231,0.5729100541287432
43,-0.06915253276554531,1.0241357557398685
44,0.8638149122838257,-0.4836366081709762
45,1.9048920789181814,-0.05962397245654287
46,1.155438645029466,0.33400553512972136
47,1.0397709832742539,-0.5148954068834108
48,1.9410518591804766,-0.12756987422570654
49,-0.09979933398689389,0.3458817513615861
50,1.5974751107794258,-0.39482815053581827
51,-0.8852380436225098,0.031161019777045083
52,1.3668695748057527,-0.19974274322971136
53,0.8757691208823324,0.6347842394641751
54,0.15687573799776233,0.9589120503502988
55,0.44642587535410894,-0.2961953577206664
56,1.7725299729404727,-0.12134290623069463
57,0.3476158745094363,-0.18645320174660773
58,0.30071717410912036,0.8488362696594
59,0.44173069999873854,-0.34367760486075993
60,1.0777230270687093,0.10905829930694264
61,0.4027299219671927,0.9909918082734037
62,0.30607684210508157,-0.3289547740932611
63,0.2993301430058699,1.068363957728616
64,0.06462311864987311,1.1846170189798892
65,-0.2577204444961441,1.0282792323194714
66,-1.0858341435178134,0.40578843655198205
67,0.5877650419149911,0.7987765404530333
68,-0.6376974881643255,0.6886765895772214
69,0.8295227186009203,0.3397085082180842
70,2.0467411196900556,0.07932151614343476
71,-1.0232371319968694,0.6555252932237413
72,-0.38577999504477106,1.217852764168513
73,0.7389713612718323,0.7777333673452081
74,0.7106336035368238,0.7760235226661693
75,1.0264251432134703,-0.09946413398498431
76,0.9284931309198906,-0.6216402295178758
77,1.292390977299797,-0.2823100116480861
78,0.04085828573924138,0.3212726513926639
79,0.6319361418498592,-0.5111655991760179
80,-0.8903281335904735,0.18246798937165537
81,1.2024272294591971,0.1928147345472917
82,-0.01938338380679175,0.39876262122408385
83,1.3155811921594978,-0.5322703067820163
84,-0.6095658204000963,0.6774562569089259
85,0.49737955226311303,0.9317536650401695
86,1.7215653216692424,-0.2881231092999573
87,2.184972489103489,0.5958843396404234
88,0.6123548827021605,-0.3282002966930839
89,0.43152274078863034,-0.2501066256068844
90,-0.14929107006264236,0.8879027812131527
91,1.9060564566974811,0.2421685291130627
92,-0.6044079849546213,1.0732391978474702
93,1.1427718961373876,-0.34367672861483395
94,1.3396511846240446,-0.3220436454653495
95,-0.40120049586855405,0.9433274637911985
96,-1.0165055371586158,0.2389843146800314
97,-0.03969020373042869,1.0186805312363916
98,-0.495200901983646,0.8053513999520633
99,1.2802332661023312,-0.5351197440469599
